G04 #@! TF.GenerationSoftware,KiCad,Pcbnew,(5.0.2)-1*
G04 #@! TF.CreationDate,2019-04-26T08:08:36-05:00*
G04 #@! TF.ProjectId,controller,636f6e74-726f-46c6-9c65-722e6b696361,rev?*
G04 #@! TF.SameCoordinates,Original*
G04 #@! TF.FileFunction,Legend,Top*
G04 #@! TF.FilePolarity,Positive*
%FSLAX46Y46*%
G04 Gerber Fmt 4.6, Leading zero omitted, Abs format (unit mm)*
G04 Created by KiCad (PCBNEW (5.0.2)-1) date 4/26/2019 8:08:36 AM*
%MOMM*%
%LPD*%
G01*
G04 APERTURE LIST*
%ADD10C,0.300000*%
%ADD11C,0.200000*%
%ADD12C,0.120000*%
%ADD13C,0.152400*%
%ADD14C,0.150000*%
%ADD15C,0.050000*%
G04 APERTURE END LIST*
D10*
X44428571Y-117107142D02*
X45571428Y-117107142D01*
X45000000Y-117678571D02*
X45000000Y-116535714D01*
X44428571Y-112107142D02*
X45571428Y-112107142D01*
X45000000Y-112678571D02*
X45000000Y-111535714D01*
X108357142Y-131178571D02*
X107857142Y-130464285D01*
X107500000Y-131178571D02*
X107500000Y-129678571D01*
X108071428Y-129678571D01*
X108214285Y-129750000D01*
X108285714Y-129821428D01*
X108357142Y-129964285D01*
X108357142Y-130178571D01*
X108285714Y-130321428D01*
X108214285Y-130392857D01*
X108071428Y-130464285D01*
X107500000Y-130464285D01*
X108785714Y-129678571D02*
X109642857Y-129678571D01*
X109214285Y-131178571D02*
X109214285Y-129678571D01*
X111000000Y-131178571D02*
X110500000Y-130464285D01*
X110142857Y-131178571D02*
X110142857Y-129678571D01*
X110714285Y-129678571D01*
X110857142Y-129750000D01*
X110928571Y-129821428D01*
X111000000Y-129964285D01*
X111000000Y-130178571D01*
X110928571Y-130321428D01*
X110857142Y-130392857D01*
X110714285Y-130464285D01*
X110142857Y-130464285D01*
X111642857Y-131178571D02*
X111642857Y-129678571D01*
X112500000Y-131178571D01*
X112500000Y-129678571D01*
X108250000Y-142035714D02*
X108178571Y-142107142D01*
X107964285Y-142178571D01*
X107821428Y-142178571D01*
X107607142Y-142107142D01*
X107464285Y-141964285D01*
X107392857Y-141821428D01*
X107321428Y-141535714D01*
X107321428Y-141321428D01*
X107392857Y-141035714D01*
X107464285Y-140892857D01*
X107607142Y-140750000D01*
X107821428Y-140678571D01*
X107964285Y-140678571D01*
X108178571Y-140750000D01*
X108250000Y-140821428D01*
X108821428Y-141750000D02*
X109535714Y-141750000D01*
X108678571Y-142178571D02*
X109178571Y-140678571D01*
X109678571Y-142178571D01*
X110178571Y-142178571D02*
X110178571Y-140678571D01*
X111035714Y-142178571D01*
X111035714Y-140678571D01*
X111750000Y-142178571D02*
X111750000Y-140678571D01*
X111750000Y-141392857D02*
X112607142Y-141392857D01*
X112607142Y-142178571D02*
X112607142Y-140678571D01*
X108428571Y-145535714D02*
X108357142Y-145607142D01*
X108142857Y-145678571D01*
X108000000Y-145678571D01*
X107785714Y-145607142D01*
X107642857Y-145464285D01*
X107571428Y-145321428D01*
X107500000Y-145035714D01*
X107500000Y-144821428D01*
X107571428Y-144535714D01*
X107642857Y-144392857D01*
X107785714Y-144250000D01*
X108000000Y-144178571D01*
X108142857Y-144178571D01*
X108357142Y-144250000D01*
X108428571Y-144321428D01*
X109000000Y-145250000D02*
X109714285Y-145250000D01*
X108857142Y-145678571D02*
X109357142Y-144178571D01*
X109857142Y-145678571D01*
X110357142Y-145678571D02*
X110357142Y-144178571D01*
X111214285Y-145678571D01*
X111214285Y-144178571D01*
X112642857Y-145678571D02*
X111928571Y-145678571D01*
X111928571Y-144178571D01*
X108607142Y-121392857D02*
X108821428Y-121464285D01*
X108892857Y-121535714D01*
X108964285Y-121678571D01*
X108964285Y-121892857D01*
X108892857Y-122035714D01*
X108821428Y-122107142D01*
X108678571Y-122178571D01*
X108107142Y-122178571D01*
X108107142Y-120678571D01*
X108607142Y-120678571D01*
X108750000Y-120750000D01*
X108821428Y-120821428D01*
X108892857Y-120964285D01*
X108892857Y-121107142D01*
X108821428Y-121250000D01*
X108750000Y-121321428D01*
X108607142Y-121392857D01*
X108107142Y-121392857D01*
X108892857Y-118250000D02*
X108750000Y-118178571D01*
X108535714Y-118178571D01*
X108321428Y-118250000D01*
X108178571Y-118392857D01*
X108107142Y-118535714D01*
X108035714Y-118821428D01*
X108035714Y-119035714D01*
X108107142Y-119321428D01*
X108178571Y-119464285D01*
X108321428Y-119607142D01*
X108535714Y-119678571D01*
X108678571Y-119678571D01*
X108892857Y-119607142D01*
X108964285Y-119535714D01*
X108964285Y-119035714D01*
X108678571Y-119035714D01*
X108964285Y-117178571D02*
X108464285Y-116464285D01*
X108107142Y-117178571D02*
X108107142Y-115678571D01*
X108678571Y-115678571D01*
X108821428Y-115750000D01*
X108892857Y-115821428D01*
X108964285Y-115964285D01*
X108964285Y-116178571D01*
X108892857Y-116321428D01*
X108821428Y-116392857D01*
X108678571Y-116464285D01*
X108107142Y-116464285D01*
X108071428Y-125178571D02*
X107214285Y-125178571D01*
X107642857Y-125178571D02*
X107642857Y-123678571D01*
X107500000Y-123892857D01*
X107357142Y-124035714D01*
X107214285Y-124107142D01*
X108642857Y-123821428D02*
X108714285Y-123750000D01*
X108857142Y-123678571D01*
X109214285Y-123678571D01*
X109357142Y-123750000D01*
X109428571Y-123821428D01*
X109500000Y-123964285D01*
X109500000Y-124107142D01*
X109428571Y-124321428D01*
X108571428Y-125178571D01*
X109500000Y-125178571D01*
X109928571Y-123678571D02*
X110428571Y-125178571D01*
X110928571Y-123678571D01*
X108071428Y-134178571D02*
X107214285Y-134178571D01*
X107642857Y-134178571D02*
X107642857Y-132678571D01*
X107500000Y-132892857D01*
X107357142Y-133035714D01*
X107214285Y-133107142D01*
X108642857Y-132821428D02*
X108714285Y-132750000D01*
X108857142Y-132678571D01*
X109214285Y-132678571D01*
X109357142Y-132750000D01*
X109428571Y-132821428D01*
X109500000Y-132964285D01*
X109500000Y-133107142D01*
X109428571Y-133321428D01*
X108571428Y-134178571D01*
X109500000Y-134178571D01*
X109928571Y-132678571D02*
X110428571Y-134178571D01*
X110928571Y-132678571D01*
D11*
X82750352Y-120687018D02*
X53750352Y-120687018D01*
X82750352Y-85187018D02*
X82750352Y-120687018D01*
X53750352Y-85187018D02*
X82750352Y-85187018D01*
X46250352Y-85187018D02*
X53750352Y-85187018D01*
X46250352Y-120687018D02*
X46250352Y-85187018D01*
X53750352Y-120687018D02*
X46250352Y-120687018D01*
X72518000Y-145510000D02*
X72518000Y-125444000D01*
X52706000Y-145510000D02*
X72518000Y-145510000D01*
X52706000Y-125444000D02*
X52706000Y-145510000D01*
X72772000Y-125444000D02*
X52706000Y-125444000D01*
D12*
G04 #@! TO.C,C1*
X43870000Y-140500000D02*
G75*
G03X43870000Y-140500000I-2120000J0D01*
G01*
G04 #@! TO.C,C2*
X43870000Y-134500000D02*
G75*
G03X43870000Y-134500000I-2120000J0D01*
G01*
G04 #@! TO.C,J1*
X106330000Y-140630000D02*
X103670000Y-140630000D01*
X106330000Y-143230000D02*
X106330000Y-140630000D01*
X103670000Y-143230000D02*
X103670000Y-140630000D01*
X106330000Y-143230000D02*
X103670000Y-143230000D01*
X106330000Y-144500000D02*
X106330000Y-145830000D01*
X106330000Y-145830000D02*
X105000000Y-145830000D01*
D13*
G04 #@! TO.C,Q1*
X106516000Y-94960000D02*
G75*
G02X104484000Y-94960000I-1016000J0D01*
G01*
X102579000Y-94960000D02*
X104484000Y-94960000D01*
X108421000Y-94960000D02*
X106516000Y-94960000D01*
X108421000Y-100040000D02*
X102579000Y-100040000D01*
X102579000Y-94960000D02*
X102579000Y-100040000D01*
X108421000Y-100040000D02*
X108421000Y-94960000D01*
G04 #@! TO.C,Q2*
X108421000Y-109540000D02*
X108421000Y-104460000D01*
X102579000Y-104460000D02*
X102579000Y-109540000D01*
X108421000Y-109540000D02*
X102579000Y-109540000D01*
X108421000Y-104460000D02*
X106516000Y-104460000D01*
X102579000Y-104460000D02*
X104484000Y-104460000D01*
X106516000Y-104460000D02*
G75*
G02X104484000Y-104460000I-1016000J0D01*
G01*
G04 #@! TO.C,Q3*
X93016000Y-94960000D02*
G75*
G02X90984000Y-94960000I-1016000J0D01*
G01*
X89079000Y-94960000D02*
X90984000Y-94960000D01*
X94921000Y-94960000D02*
X93016000Y-94960000D01*
X94921000Y-100040000D02*
X89079000Y-100040000D01*
X89079000Y-94960000D02*
X89079000Y-100040000D01*
X94921000Y-100040000D02*
X94921000Y-94960000D01*
G04 #@! TO.C,Q4*
X94921000Y-109540000D02*
X94921000Y-104460000D01*
X89079000Y-104460000D02*
X89079000Y-109540000D01*
X94921000Y-109540000D02*
X89079000Y-109540000D01*
X94921000Y-104460000D02*
X93016000Y-104460000D01*
X89079000Y-104460000D02*
X90984000Y-104460000D01*
X93016000Y-104460000D02*
G75*
G02X90984000Y-104460000I-1016000J0D01*
G01*
D12*
G04 #@! TO.C,R1*
X71290000Y-161300000D02*
X71770000Y-161300000D01*
X71770000Y-161300000D02*
X71770000Y-171440000D01*
X71770000Y-171440000D02*
X71290000Y-171440000D01*
X68410000Y-161300000D02*
X67930000Y-161300000D01*
X67930000Y-161300000D02*
X67930000Y-171440000D01*
X67930000Y-171440000D02*
X68410000Y-171440000D01*
G04 #@! TO.C,R2*
X83560000Y-131720000D02*
X83080000Y-131720000D01*
X83080000Y-131720000D02*
X83080000Y-121580000D01*
X83080000Y-121580000D02*
X83560000Y-121580000D01*
X86440000Y-131720000D02*
X86920000Y-131720000D01*
X86920000Y-131720000D02*
X86920000Y-121580000D01*
X86920000Y-121580000D02*
X86440000Y-121580000D01*
G04 #@! TO.C,R3*
X91920000Y-121580000D02*
X91440000Y-121580000D01*
X91920000Y-131720000D02*
X91920000Y-121580000D01*
X91440000Y-131720000D02*
X91920000Y-131720000D01*
X88080000Y-121580000D02*
X88560000Y-121580000D01*
X88080000Y-131720000D02*
X88080000Y-121580000D01*
X88560000Y-131720000D02*
X88080000Y-131720000D01*
G04 #@! TO.C,R4*
X93560000Y-131720000D02*
X93080000Y-131720000D01*
X93080000Y-131720000D02*
X93080000Y-121580000D01*
X93080000Y-121580000D02*
X93560000Y-121580000D01*
X96440000Y-131720000D02*
X96920000Y-131720000D01*
X96920000Y-131720000D02*
X96920000Y-121580000D01*
X96920000Y-121580000D02*
X96440000Y-121580000D01*
G04 #@! TO.C,R5*
X101920000Y-121580000D02*
X101440000Y-121580000D01*
X101920000Y-131720000D02*
X101920000Y-121580000D01*
X101440000Y-131720000D02*
X101920000Y-131720000D01*
X98080000Y-121580000D02*
X98560000Y-121580000D01*
X98080000Y-131720000D02*
X98080000Y-121580000D01*
X98560000Y-131720000D02*
X98080000Y-131720000D01*
G04 #@! TO.C,U1*
X70546000Y-128432000D02*
X67886000Y-128432000D01*
X70546000Y-138652000D02*
X70546000Y-128432000D01*
X67886000Y-138652000D02*
X67886000Y-128432000D01*
X70546000Y-138652000D02*
X67886000Y-138652000D01*
X70546000Y-139922000D02*
X70546000Y-141252000D01*
X70546000Y-141252000D02*
X69216000Y-141252000D01*
G04 #@! TO.C,U2*
X61960000Y-160340000D02*
G75*
G02X59960000Y-160340000I-1000000J0D01*
G01*
X59960000Y-160340000D02*
X58310000Y-160340000D01*
X58310000Y-160340000D02*
X58310000Y-170620000D01*
X58310000Y-170620000D02*
X63610000Y-170620000D01*
X63610000Y-170620000D02*
X63610000Y-160340000D01*
X63610000Y-160340000D02*
X61960000Y-160340000D01*
D14*
G04 #@! TO.C,U3*
X66560400Y-120467000D02*
X66560400Y-121737000D01*
X66560400Y-121737000D02*
X58940400Y-121737000D01*
X58940400Y-121737000D02*
X58940400Y-120467000D01*
X67830400Y-109037000D02*
X67830400Y-105227000D01*
X67830400Y-105227000D02*
X65290400Y-105227000D01*
X65290400Y-105227000D02*
X65290400Y-109037000D01*
X65290400Y-109037000D02*
X67830400Y-109037000D01*
X66560400Y-115387000D02*
X58940400Y-115387000D01*
X58940400Y-115387000D02*
X58940400Y-120467000D01*
X66560400Y-115387000D02*
X66560400Y-120467000D01*
X67830400Y-114117000D02*
X67830400Y-111577000D01*
X67830400Y-111577000D02*
X65290400Y-111577000D01*
X65290400Y-111577000D02*
X65290400Y-114117000D01*
X65290400Y-114117000D02*
X67830400Y-114117000D01*
X60210400Y-87447000D02*
X65290400Y-87447000D01*
X65290400Y-87447000D02*
X65290400Y-89987000D01*
X65290400Y-89987000D02*
X60210400Y-89987000D01*
X60210400Y-89987000D02*
X60210400Y-87447000D01*
X67830400Y-93797000D02*
X57670400Y-93797000D01*
X57670400Y-102687000D02*
X67830400Y-102687000D01*
X57670400Y-93797000D02*
X57670400Y-102687000D01*
X67830400Y-93797000D02*
X67830400Y-102687000D01*
X53860400Y-120467000D02*
X53860400Y-84907000D01*
X53860400Y-84907000D02*
X71640400Y-84907000D01*
X71640400Y-84907000D02*
X71640400Y-120467000D01*
X71640400Y-120467000D02*
X53860400Y-120467000D01*
D12*
G04 #@! TO.C,J6*
X38135000Y-110670000D02*
X38135000Y-113330000D01*
X40735000Y-110670000D02*
X38135000Y-110670000D01*
X40735000Y-113330000D02*
X38135000Y-113330000D01*
X40735000Y-110670000D02*
X40735000Y-113330000D01*
X42005000Y-110670000D02*
X43335000Y-110670000D01*
X43335000Y-110670000D02*
X43335000Y-112000000D01*
G04 #@! TO.C,J7*
X43335000Y-115900000D02*
X43335000Y-117230000D01*
X42005000Y-115900000D02*
X43335000Y-115900000D01*
X40735000Y-115900000D02*
X40735000Y-118560000D01*
X40735000Y-118560000D02*
X38135000Y-118560000D01*
X40735000Y-115900000D02*
X38135000Y-115900000D01*
X38135000Y-115900000D02*
X38135000Y-118560000D01*
G04 #@! TO.C,U4*
X36420000Y-124730000D02*
X46660000Y-124730000D01*
X36420000Y-129371000D02*
X46660000Y-129371000D01*
X36420000Y-124730000D02*
X36420000Y-129371000D01*
X46660000Y-124730000D02*
X46660000Y-129371000D01*
X36420000Y-126240000D02*
X46660000Y-126240000D01*
X39690000Y-124730000D02*
X39690000Y-126240000D01*
X43391000Y-124730000D02*
X43391000Y-126240000D01*
G04 #@! TO.C,C3*
X45890000Y-150805000D02*
G75*
G03X45890000Y-150805000I-4120000J0D01*
G01*
G04 #@! TO.C,C4*
X39115000Y-156435000D02*
X44055000Y-156435000D01*
X39115000Y-159175000D02*
X44055000Y-159175000D01*
X39115000Y-156435000D02*
X39115000Y-156750000D01*
X39115000Y-158860000D02*
X39115000Y-159175000D01*
X44055000Y-156435000D02*
X44055000Y-156750000D01*
X44055000Y-158860000D02*
X44055000Y-159175000D01*
G04 #@! TO.C,C5*
X38965000Y-163420000D02*
X44205000Y-163420000D01*
X38965000Y-166160000D02*
X44205000Y-166160000D01*
X38965000Y-163420000D02*
X38965000Y-163735000D01*
X38965000Y-165845000D02*
X38965000Y-166160000D01*
X44205000Y-163420000D02*
X44205000Y-163735000D01*
X44205000Y-165845000D02*
X44205000Y-166160000D01*
G04 #@! TO.C,C6*
X56370000Y-151000000D02*
G75*
G03X56370000Y-151000000I-4120000J0D01*
G01*
G04 #@! TO.C,C7*
X47855000Y-156435000D02*
X53095000Y-156435000D01*
X47855000Y-159175000D02*
X53095000Y-159175000D01*
X47855000Y-156435000D02*
X47855000Y-156750000D01*
X47855000Y-158860000D02*
X47855000Y-159175000D01*
X53095000Y-156435000D02*
X53095000Y-156750000D01*
X53095000Y-158860000D02*
X53095000Y-159175000D01*
G04 #@! TO.C,C8*
X53095000Y-165845000D02*
X53095000Y-166160000D01*
X53095000Y-163420000D02*
X53095000Y-163735000D01*
X47855000Y-165845000D02*
X47855000Y-166160000D01*
X47855000Y-163420000D02*
X47855000Y-163735000D01*
X47855000Y-166160000D02*
X53095000Y-166160000D01*
X47855000Y-163420000D02*
X53095000Y-163420000D01*
G04 #@! TO.C,J2*
X106362000Y-115336000D02*
X103702000Y-115336000D01*
X106362000Y-123016000D02*
X106362000Y-115336000D01*
X103702000Y-123016000D02*
X103702000Y-115336000D01*
X106362000Y-123016000D02*
X103702000Y-123016000D01*
X106362000Y-124286000D02*
X106362000Y-125616000D01*
X106362000Y-125616000D02*
X105032000Y-125616000D01*
G04 #@! TO.C,J5*
X103670000Y-134370000D02*
X106330000Y-134370000D01*
X103670000Y-131770000D02*
X103670000Y-134370000D01*
X106330000Y-131770000D02*
X106330000Y-134370000D01*
X103670000Y-131770000D02*
X106330000Y-131770000D01*
X103670000Y-130500000D02*
X103670000Y-129170000D01*
X103670000Y-129170000D02*
X105000000Y-129170000D01*
G04 #@! TO.C,R6*
X86530000Y-154950000D02*
X87010000Y-154950000D01*
X87010000Y-154950000D02*
X87010000Y-165090000D01*
X87010000Y-165090000D02*
X86530000Y-165090000D01*
X83650000Y-154950000D02*
X83170000Y-154950000D01*
X83170000Y-154950000D02*
X83170000Y-165090000D01*
X83170000Y-165090000D02*
X83650000Y-165090000D01*
D14*
G04 #@! TO.C,U5*
X79675000Y-163750000D02*
X79675000Y-163525000D01*
X75025000Y-163750000D02*
X75025000Y-163425000D01*
X75025000Y-153800000D02*
X75025000Y-154125000D01*
X79675000Y-153800000D02*
X79675000Y-154125000D01*
X79675000Y-163750000D02*
X75025000Y-163750000D01*
X79675000Y-153800000D02*
X75025000Y-153800000D01*
X79675000Y-163525000D02*
X80750000Y-163525000D01*
D12*
G04 #@! TO.C,R7*
X83523000Y-148072000D02*
X83043000Y-148072000D01*
X83043000Y-148072000D02*
X83043000Y-137932000D01*
X83043000Y-137932000D02*
X83523000Y-137932000D01*
X86403000Y-148072000D02*
X86883000Y-148072000D01*
X86883000Y-148072000D02*
X86883000Y-137932000D01*
X86883000Y-137932000D02*
X86403000Y-137932000D01*
G04 #@! TO.C,R8*
X91963000Y-137932000D02*
X91483000Y-137932000D01*
X91963000Y-148072000D02*
X91963000Y-137932000D01*
X91483000Y-148072000D02*
X91963000Y-148072000D01*
X88123000Y-137932000D02*
X88603000Y-137932000D01*
X88123000Y-148072000D02*
X88123000Y-137932000D01*
X88603000Y-148072000D02*
X88123000Y-148072000D01*
G04 #@! TO.C,R9*
X93556000Y-148072000D02*
X93076000Y-148072000D01*
X93076000Y-148072000D02*
X93076000Y-137932000D01*
X93076000Y-137932000D02*
X93556000Y-137932000D01*
X96436000Y-148072000D02*
X96916000Y-148072000D01*
X96916000Y-148072000D02*
X96916000Y-137932000D01*
X96916000Y-137932000D02*
X96436000Y-137932000D01*
G04 #@! TO.C,R10*
X101869000Y-137932000D02*
X101389000Y-137932000D01*
X101869000Y-148072000D02*
X101869000Y-137932000D01*
X101389000Y-148072000D02*
X101869000Y-148072000D01*
X98029000Y-137932000D02*
X98509000Y-137932000D01*
X98029000Y-148072000D02*
X98029000Y-137932000D01*
X98509000Y-148072000D02*
X98029000Y-148072000D01*
G04 #@! TO.C,C1*
D14*
X41583333Y-144107142D02*
X41535714Y-144154761D01*
X41392857Y-144202380D01*
X41297619Y-144202380D01*
X41154761Y-144154761D01*
X41059523Y-144059523D01*
X41011904Y-143964285D01*
X40964285Y-143773809D01*
X40964285Y-143630952D01*
X41011904Y-143440476D01*
X41059523Y-143345238D01*
X41154761Y-143250000D01*
X41297619Y-143202380D01*
X41392857Y-143202380D01*
X41535714Y-143250000D01*
X41583333Y-143297619D01*
X42535714Y-144202380D02*
X41964285Y-144202380D01*
X42250000Y-144202380D02*
X42250000Y-143202380D01*
X42154761Y-143345238D01*
X42059523Y-143440476D01*
X41964285Y-143488095D01*
X43666666Y-142357142D02*
X43714285Y-142404761D01*
X43666666Y-142452380D01*
X43619047Y-142404761D01*
X43666666Y-142357142D01*
X43666666Y-142452380D01*
X44047619Y-141452380D02*
X44666666Y-141452380D01*
X44333333Y-141833333D01*
X44476190Y-141833333D01*
X44571428Y-141880952D01*
X44619047Y-141928571D01*
X44666666Y-142023809D01*
X44666666Y-142261904D01*
X44619047Y-142357142D01*
X44571428Y-142404761D01*
X44476190Y-142452380D01*
X44190476Y-142452380D01*
X44095238Y-142404761D01*
X44047619Y-142357142D01*
X45000000Y-141452380D02*
X45619047Y-141452380D01*
X45285714Y-141833333D01*
X45428571Y-141833333D01*
X45523809Y-141880952D01*
X45571428Y-141928571D01*
X45619047Y-142023809D01*
X45619047Y-142261904D01*
X45571428Y-142357142D01*
X45523809Y-142404761D01*
X45428571Y-142452380D01*
X45142857Y-142452380D01*
X45047619Y-142404761D01*
X45000000Y-142357142D01*
X46476190Y-141785714D02*
X46476190Y-142452380D01*
X46047619Y-141785714D02*
X46047619Y-142309523D01*
X46095238Y-142404761D01*
X46190476Y-142452380D01*
X46333333Y-142452380D01*
X46428571Y-142404761D01*
X46476190Y-142357142D01*
X47285714Y-141928571D02*
X46952380Y-141928571D01*
X46952380Y-142452380D02*
X46952380Y-141452380D01*
X47428571Y-141452380D01*
G04 #@! TO.C,C2*
X43333333Y-137357142D02*
X43285714Y-137404761D01*
X43142857Y-137452380D01*
X43047619Y-137452380D01*
X42904761Y-137404761D01*
X42809523Y-137309523D01*
X42761904Y-137214285D01*
X42714285Y-137023809D01*
X42714285Y-136880952D01*
X42761904Y-136690476D01*
X42809523Y-136595238D01*
X42904761Y-136500000D01*
X43047619Y-136452380D01*
X43142857Y-136452380D01*
X43285714Y-136500000D01*
X43333333Y-136547619D01*
X43714285Y-136547619D02*
X43761904Y-136500000D01*
X43857142Y-136452380D01*
X44095238Y-136452380D01*
X44190476Y-136500000D01*
X44238095Y-136547619D01*
X44285714Y-136642857D01*
X44285714Y-136738095D01*
X44238095Y-136880952D01*
X43666666Y-137452380D01*
X44285714Y-137452380D01*
X40392857Y-131607142D02*
X40440476Y-131654761D01*
X40392857Y-131702380D01*
X40345238Y-131654761D01*
X40392857Y-131607142D01*
X40392857Y-131702380D01*
X41392857Y-131702380D02*
X40821428Y-131702380D01*
X41107142Y-131702380D02*
X41107142Y-130702380D01*
X41011904Y-130845238D01*
X40916666Y-130940476D01*
X40821428Y-130988095D01*
X42250000Y-131035714D02*
X42250000Y-131702380D01*
X41821428Y-131035714D02*
X41821428Y-131559523D01*
X41869047Y-131654761D01*
X41964285Y-131702380D01*
X42107142Y-131702380D01*
X42202380Y-131654761D01*
X42250000Y-131607142D01*
X43059523Y-131178571D02*
X42726190Y-131178571D01*
X42726190Y-131702380D02*
X42726190Y-130702380D01*
X43202380Y-130702380D01*
G04 #@! TO.C,J1*
X104666666Y-146282380D02*
X104666666Y-146996666D01*
X104619047Y-147139523D01*
X104523809Y-147234761D01*
X104380952Y-147282380D01*
X104285714Y-147282380D01*
X105666666Y-147282380D02*
X105095238Y-147282380D01*
X105380952Y-147282380D02*
X105380952Y-146282380D01*
X105285714Y-146425238D01*
X105190476Y-146520476D01*
X105095238Y-146568095D01*
X99166666Y-139987142D02*
X99119047Y-140034761D01*
X98976190Y-140082380D01*
X98880952Y-140082380D01*
X98738095Y-140034761D01*
X98642857Y-139939523D01*
X98595238Y-139844285D01*
X98547619Y-139653809D01*
X98547619Y-139510952D01*
X98595238Y-139320476D01*
X98642857Y-139225238D01*
X98738095Y-139130000D01*
X98880952Y-139082380D01*
X98976190Y-139082380D01*
X99119047Y-139130000D01*
X99166666Y-139177619D01*
X99738095Y-140082380D02*
X99642857Y-140034761D01*
X99595238Y-139987142D01*
X99547619Y-139891904D01*
X99547619Y-139606190D01*
X99595238Y-139510952D01*
X99642857Y-139463333D01*
X99738095Y-139415714D01*
X99880952Y-139415714D01*
X99976190Y-139463333D01*
X100023809Y-139510952D01*
X100071428Y-139606190D01*
X100071428Y-139891904D01*
X100023809Y-139987142D01*
X99976190Y-140034761D01*
X99880952Y-140082380D01*
X99738095Y-140082380D01*
X100500000Y-139415714D02*
X100500000Y-140082380D01*
X100500000Y-139510952D02*
X100547619Y-139463333D01*
X100642857Y-139415714D01*
X100785714Y-139415714D01*
X100880952Y-139463333D01*
X100928571Y-139558571D01*
X100928571Y-140082380D01*
X101404761Y-139415714D02*
X101404761Y-140082380D01*
X101404761Y-139510952D02*
X101452380Y-139463333D01*
X101547619Y-139415714D01*
X101690476Y-139415714D01*
X101785714Y-139463333D01*
X101833333Y-139558571D01*
X101833333Y-140082380D01*
X102071428Y-140177619D02*
X102833333Y-140177619D01*
X103261904Y-139082380D02*
X103357142Y-139082380D01*
X103452380Y-139130000D01*
X103500000Y-139177619D01*
X103547619Y-139272857D01*
X103595238Y-139463333D01*
X103595238Y-139701428D01*
X103547619Y-139891904D01*
X103500000Y-139987142D01*
X103452380Y-140034761D01*
X103357142Y-140082380D01*
X103261904Y-140082380D01*
X103166666Y-140034761D01*
X103119047Y-139987142D01*
X103071428Y-139891904D01*
X103023809Y-139701428D01*
X103023809Y-139463333D01*
X103071428Y-139272857D01*
X103119047Y-139177619D01*
X103166666Y-139130000D01*
X103261904Y-139082380D01*
X104547619Y-140082380D02*
X103976190Y-140082380D01*
X104261904Y-140082380D02*
X104261904Y-139082380D01*
X104166666Y-139225238D01*
X104071428Y-139320476D01*
X103976190Y-139368095D01*
X104880952Y-140082380D02*
X105404761Y-139415714D01*
X104880952Y-139415714D02*
X105404761Y-140082380D01*
X105976190Y-139082380D02*
X106071428Y-139082380D01*
X106166666Y-139130000D01*
X106214285Y-139177619D01*
X106261904Y-139272857D01*
X106309523Y-139463333D01*
X106309523Y-139701428D01*
X106261904Y-139891904D01*
X106214285Y-139987142D01*
X106166666Y-140034761D01*
X106071428Y-140082380D01*
X105976190Y-140082380D01*
X105880952Y-140034761D01*
X105833333Y-139987142D01*
X105785714Y-139891904D01*
X105738095Y-139701428D01*
X105738095Y-139463333D01*
X105785714Y-139272857D01*
X105833333Y-139177619D01*
X105880952Y-139130000D01*
X105976190Y-139082380D01*
X106690476Y-139177619D02*
X106738095Y-139130000D01*
X106833333Y-139082380D01*
X107071428Y-139082380D01*
X107166666Y-139130000D01*
X107214285Y-139177619D01*
X107261904Y-139272857D01*
X107261904Y-139368095D01*
X107214285Y-139510952D01*
X106642857Y-140082380D01*
X107261904Y-140082380D01*
X107452380Y-140177619D02*
X108214285Y-140177619D01*
X108452380Y-140082380D02*
X108452380Y-139082380D01*
X108785714Y-139796666D01*
X109119047Y-139082380D01*
X109119047Y-140082380D01*
X110023809Y-140082380D02*
X110023809Y-139558571D01*
X109976190Y-139463333D01*
X109880952Y-139415714D01*
X109690476Y-139415714D01*
X109595238Y-139463333D01*
X110023809Y-140034761D02*
X109928571Y-140082380D01*
X109690476Y-140082380D01*
X109595238Y-140034761D01*
X109547619Y-139939523D01*
X109547619Y-139844285D01*
X109595238Y-139749047D01*
X109690476Y-139701428D01*
X109928571Y-139701428D01*
X110023809Y-139653809D01*
X110642857Y-140082380D02*
X110547619Y-140034761D01*
X110500000Y-139939523D01*
X110500000Y-139082380D01*
X111404761Y-140034761D02*
X111309523Y-140082380D01*
X111119047Y-140082380D01*
X111023809Y-140034761D01*
X110976190Y-139939523D01*
X110976190Y-139558571D01*
X111023809Y-139463333D01*
X111119047Y-139415714D01*
X111309523Y-139415714D01*
X111404761Y-139463333D01*
X111452380Y-139558571D01*
X111452380Y-139653809D01*
X110976190Y-139749047D01*
G04 #@! TO.C,Q1*
D15*
X105277534Y-94488567D02*
X105182199Y-94440900D01*
X105086864Y-94345564D01*
X104943861Y-94202561D01*
X104848526Y-94154894D01*
X104753190Y-94154894D01*
X104800858Y-94393232D02*
X104705523Y-94345564D01*
X104610188Y-94250229D01*
X104562520Y-94059559D01*
X104562520Y-93725885D01*
X104610188Y-93535215D01*
X104705523Y-93439880D01*
X104800858Y-93392212D01*
X104991529Y-93392212D01*
X105086864Y-93439880D01*
X105182199Y-93535215D01*
X105229867Y-93725885D01*
X105229867Y-94059559D01*
X105182199Y-94250229D01*
X105086864Y-94345564D01*
X104991529Y-94393232D01*
X104800858Y-94393232D01*
X106183219Y-94393232D02*
X105611208Y-94393232D01*
X105897213Y-94393232D02*
X105897213Y-93392212D01*
X105801878Y-93535215D01*
X105706543Y-93630550D01*
X105611208Y-93678218D01*
X103036296Y-100607960D02*
X103083981Y-100560275D01*
X103179352Y-100512589D01*
X103417778Y-100512589D01*
X103513148Y-100560275D01*
X103560834Y-100607960D01*
X103608519Y-100703330D01*
X103608519Y-100798701D01*
X103560834Y-100941756D01*
X102988611Y-101513979D01*
X103608519Y-101513979D01*
X104037686Y-101513979D02*
X104037686Y-100512589D01*
X104609909Y-101513979D01*
X104609909Y-100512589D01*
X104991391Y-100512589D02*
X105658984Y-100512589D01*
X105229817Y-101513979D01*
X106231207Y-100512589D02*
X106326577Y-100512589D01*
X106421948Y-100560275D01*
X106469633Y-100607960D01*
X106517318Y-100703330D01*
X106565004Y-100894071D01*
X106565004Y-101132497D01*
X106517318Y-101323238D01*
X106469633Y-101418609D01*
X106421948Y-101466294D01*
X106326577Y-101513979D01*
X106231207Y-101513979D01*
X106135836Y-101466294D01*
X106088151Y-101418609D01*
X106040466Y-101323238D01*
X105992781Y-101132497D01*
X105992781Y-100894071D01*
X106040466Y-100703330D01*
X106088151Y-100607960D01*
X106135836Y-100560275D01*
X106231207Y-100512589D01*
X107184912Y-100512589D02*
X107280282Y-100512589D01*
X107375653Y-100560275D01*
X107423338Y-100607960D01*
X107471023Y-100703330D01*
X107518708Y-100894071D01*
X107518708Y-101132497D01*
X107471023Y-101323238D01*
X107423338Y-101418609D01*
X107375653Y-101466294D01*
X107280282Y-101513979D01*
X107184912Y-101513979D01*
X107089541Y-101466294D01*
X107041856Y-101418609D01*
X106994171Y-101323238D01*
X106946485Y-101132497D01*
X106946485Y-100894071D01*
X106994171Y-100703330D01*
X107041856Y-100607960D01*
X107089541Y-100560275D01*
X107184912Y-100512589D01*
X108138616Y-100512589D02*
X108233987Y-100512589D01*
X108329357Y-100560275D01*
X108377043Y-100607960D01*
X108424728Y-100703330D01*
X108472413Y-100894071D01*
X108472413Y-101132497D01*
X108424728Y-101323238D01*
X108377043Y-101418609D01*
X108329357Y-101466294D01*
X108233987Y-101513979D01*
X108138616Y-101513979D01*
X108043246Y-101466294D01*
X107995561Y-101418609D01*
X107947875Y-101323238D01*
X107900190Y-101132497D01*
X107900190Y-100894071D01*
X107947875Y-100703330D01*
X107995561Y-100607960D01*
X108043246Y-100560275D01*
X108138616Y-100512589D01*
G04 #@! TO.C,Q2*
X105277534Y-103988567D02*
X105182199Y-103940900D01*
X105086864Y-103845564D01*
X104943861Y-103702561D01*
X104848526Y-103654894D01*
X104753190Y-103654894D01*
X104800858Y-103893232D02*
X104705523Y-103845564D01*
X104610188Y-103750229D01*
X104562520Y-103559559D01*
X104562520Y-103225885D01*
X104610188Y-103035215D01*
X104705523Y-102939880D01*
X104800858Y-102892212D01*
X104991529Y-102892212D01*
X105086864Y-102939880D01*
X105182199Y-103035215D01*
X105229867Y-103225885D01*
X105229867Y-103559559D01*
X105182199Y-103750229D01*
X105086864Y-103845564D01*
X104991529Y-103893232D01*
X104800858Y-103893232D01*
X105611208Y-102987547D02*
X105658875Y-102939880D01*
X105754210Y-102892212D01*
X105992549Y-102892212D01*
X106087884Y-102939880D01*
X106135551Y-102987547D01*
X106183219Y-103082882D01*
X106183219Y-103178218D01*
X106135551Y-103321220D01*
X105563540Y-103893232D01*
X106183219Y-103893232D01*
X103036296Y-110107960D02*
X103083981Y-110060275D01*
X103179352Y-110012589D01*
X103417778Y-110012589D01*
X103513148Y-110060275D01*
X103560834Y-110107960D01*
X103608519Y-110203330D01*
X103608519Y-110298701D01*
X103560834Y-110441756D01*
X102988611Y-111013979D01*
X103608519Y-111013979D01*
X104037686Y-111013979D02*
X104037686Y-110012589D01*
X104609909Y-111013979D01*
X104609909Y-110012589D01*
X104991391Y-110012589D02*
X105658984Y-110012589D01*
X105229817Y-111013979D01*
X106231207Y-110012589D02*
X106326577Y-110012589D01*
X106421948Y-110060275D01*
X106469633Y-110107960D01*
X106517318Y-110203330D01*
X106565004Y-110394071D01*
X106565004Y-110632497D01*
X106517318Y-110823238D01*
X106469633Y-110918609D01*
X106421948Y-110966294D01*
X106326577Y-111013979D01*
X106231207Y-111013979D01*
X106135836Y-110966294D01*
X106088151Y-110918609D01*
X106040466Y-110823238D01*
X105992781Y-110632497D01*
X105992781Y-110394071D01*
X106040466Y-110203330D01*
X106088151Y-110107960D01*
X106135836Y-110060275D01*
X106231207Y-110012589D01*
X107184912Y-110012589D02*
X107280282Y-110012589D01*
X107375653Y-110060275D01*
X107423338Y-110107960D01*
X107471023Y-110203330D01*
X107518708Y-110394071D01*
X107518708Y-110632497D01*
X107471023Y-110823238D01*
X107423338Y-110918609D01*
X107375653Y-110966294D01*
X107280282Y-111013979D01*
X107184912Y-111013979D01*
X107089541Y-110966294D01*
X107041856Y-110918609D01*
X106994171Y-110823238D01*
X106946485Y-110632497D01*
X106946485Y-110394071D01*
X106994171Y-110203330D01*
X107041856Y-110107960D01*
X107089541Y-110060275D01*
X107184912Y-110012589D01*
X108138616Y-110012589D02*
X108233987Y-110012589D01*
X108329357Y-110060275D01*
X108377043Y-110107960D01*
X108424728Y-110203330D01*
X108472413Y-110394071D01*
X108472413Y-110632497D01*
X108424728Y-110823238D01*
X108377043Y-110918609D01*
X108329357Y-110966294D01*
X108233987Y-111013979D01*
X108138616Y-111013979D01*
X108043246Y-110966294D01*
X107995561Y-110918609D01*
X107947875Y-110823238D01*
X107900190Y-110632497D01*
X107900190Y-110394071D01*
X107947875Y-110203330D01*
X107995561Y-110107960D01*
X108043246Y-110060275D01*
X108138616Y-110012589D01*
G04 #@! TO.C,Q3*
X91777534Y-94488567D02*
X91682199Y-94440900D01*
X91586864Y-94345564D01*
X91443861Y-94202561D01*
X91348526Y-94154894D01*
X91253190Y-94154894D01*
X91300858Y-94393232D02*
X91205523Y-94345564D01*
X91110188Y-94250229D01*
X91062520Y-94059559D01*
X91062520Y-93725885D01*
X91110188Y-93535215D01*
X91205523Y-93439880D01*
X91300858Y-93392212D01*
X91491529Y-93392212D01*
X91586864Y-93439880D01*
X91682199Y-93535215D01*
X91729867Y-93725885D01*
X91729867Y-94059559D01*
X91682199Y-94250229D01*
X91586864Y-94345564D01*
X91491529Y-94393232D01*
X91300858Y-94393232D01*
X92063540Y-93392212D02*
X92683219Y-93392212D01*
X92349546Y-93773553D01*
X92492549Y-93773553D01*
X92587884Y-93821220D01*
X92635551Y-93868888D01*
X92683219Y-93964223D01*
X92683219Y-94202561D01*
X92635551Y-94297897D01*
X92587884Y-94345564D01*
X92492549Y-94393232D01*
X92206543Y-94393232D01*
X92111208Y-94345564D01*
X92063540Y-94297897D01*
X89536296Y-100607960D02*
X89583981Y-100560275D01*
X89679352Y-100512589D01*
X89917778Y-100512589D01*
X90013148Y-100560275D01*
X90060834Y-100607960D01*
X90108519Y-100703330D01*
X90108519Y-100798701D01*
X90060834Y-100941756D01*
X89488611Y-101513979D01*
X90108519Y-101513979D01*
X90537686Y-101513979D02*
X90537686Y-100512589D01*
X91109909Y-101513979D01*
X91109909Y-100512589D01*
X91491391Y-100512589D02*
X92158984Y-100512589D01*
X91729817Y-101513979D01*
X92731207Y-100512589D02*
X92826577Y-100512589D01*
X92921948Y-100560275D01*
X92969633Y-100607960D01*
X93017318Y-100703330D01*
X93065004Y-100894071D01*
X93065004Y-101132497D01*
X93017318Y-101323238D01*
X92969633Y-101418609D01*
X92921948Y-101466294D01*
X92826577Y-101513979D01*
X92731207Y-101513979D01*
X92635836Y-101466294D01*
X92588151Y-101418609D01*
X92540466Y-101323238D01*
X92492781Y-101132497D01*
X92492781Y-100894071D01*
X92540466Y-100703330D01*
X92588151Y-100607960D01*
X92635836Y-100560275D01*
X92731207Y-100512589D01*
X93684912Y-100512589D02*
X93780282Y-100512589D01*
X93875653Y-100560275D01*
X93923338Y-100607960D01*
X93971023Y-100703330D01*
X94018708Y-100894071D01*
X94018708Y-101132497D01*
X93971023Y-101323238D01*
X93923338Y-101418609D01*
X93875653Y-101466294D01*
X93780282Y-101513979D01*
X93684912Y-101513979D01*
X93589541Y-101466294D01*
X93541856Y-101418609D01*
X93494171Y-101323238D01*
X93446485Y-101132497D01*
X93446485Y-100894071D01*
X93494171Y-100703330D01*
X93541856Y-100607960D01*
X93589541Y-100560275D01*
X93684912Y-100512589D01*
X94638616Y-100512589D02*
X94733987Y-100512589D01*
X94829357Y-100560275D01*
X94877043Y-100607960D01*
X94924728Y-100703330D01*
X94972413Y-100894071D01*
X94972413Y-101132497D01*
X94924728Y-101323238D01*
X94877043Y-101418609D01*
X94829357Y-101466294D01*
X94733987Y-101513979D01*
X94638616Y-101513979D01*
X94543246Y-101466294D01*
X94495561Y-101418609D01*
X94447875Y-101323238D01*
X94400190Y-101132497D01*
X94400190Y-100894071D01*
X94447875Y-100703330D01*
X94495561Y-100607960D01*
X94543246Y-100560275D01*
X94638616Y-100512589D01*
G04 #@! TO.C,Q4*
X91777534Y-103988567D02*
X91682199Y-103940900D01*
X91586864Y-103845564D01*
X91443861Y-103702561D01*
X91348526Y-103654894D01*
X91253190Y-103654894D01*
X91300858Y-103893232D02*
X91205523Y-103845564D01*
X91110188Y-103750229D01*
X91062520Y-103559559D01*
X91062520Y-103225885D01*
X91110188Y-103035215D01*
X91205523Y-102939880D01*
X91300858Y-102892212D01*
X91491529Y-102892212D01*
X91586864Y-102939880D01*
X91682199Y-103035215D01*
X91729867Y-103225885D01*
X91729867Y-103559559D01*
X91682199Y-103750229D01*
X91586864Y-103845564D01*
X91491529Y-103893232D01*
X91300858Y-103893232D01*
X92587884Y-103225885D02*
X92587884Y-103893232D01*
X92349546Y-102844544D02*
X92111208Y-103559559D01*
X92730887Y-103559559D01*
X89536296Y-110107960D02*
X89583981Y-110060275D01*
X89679352Y-110012589D01*
X89917778Y-110012589D01*
X90013148Y-110060275D01*
X90060834Y-110107960D01*
X90108519Y-110203330D01*
X90108519Y-110298701D01*
X90060834Y-110441756D01*
X89488611Y-111013979D01*
X90108519Y-111013979D01*
X90537686Y-111013979D02*
X90537686Y-110012589D01*
X91109909Y-111013979D01*
X91109909Y-110012589D01*
X91491391Y-110012589D02*
X92158984Y-110012589D01*
X91729817Y-111013979D01*
X92731207Y-110012589D02*
X92826577Y-110012589D01*
X92921948Y-110060275D01*
X92969633Y-110107960D01*
X93017318Y-110203330D01*
X93065004Y-110394071D01*
X93065004Y-110632497D01*
X93017318Y-110823238D01*
X92969633Y-110918609D01*
X92921948Y-110966294D01*
X92826577Y-111013979D01*
X92731207Y-111013979D01*
X92635836Y-110966294D01*
X92588151Y-110918609D01*
X92540466Y-110823238D01*
X92492781Y-110632497D01*
X92492781Y-110394071D01*
X92540466Y-110203330D01*
X92588151Y-110107960D01*
X92635836Y-110060275D01*
X92731207Y-110012589D01*
X93684912Y-110012589D02*
X93780282Y-110012589D01*
X93875653Y-110060275D01*
X93923338Y-110107960D01*
X93971023Y-110203330D01*
X94018708Y-110394071D01*
X94018708Y-110632497D01*
X93971023Y-110823238D01*
X93923338Y-110918609D01*
X93875653Y-110966294D01*
X93780282Y-111013979D01*
X93684912Y-111013979D01*
X93589541Y-110966294D01*
X93541856Y-110918609D01*
X93494171Y-110823238D01*
X93446485Y-110632497D01*
X93446485Y-110394071D01*
X93494171Y-110203330D01*
X93541856Y-110107960D01*
X93589541Y-110060275D01*
X93684912Y-110012589D01*
X94638616Y-110012589D02*
X94733987Y-110012589D01*
X94829357Y-110060275D01*
X94877043Y-110107960D01*
X94924728Y-110203330D01*
X94972413Y-110394071D01*
X94972413Y-110632497D01*
X94924728Y-110823238D01*
X94877043Y-110918609D01*
X94829357Y-110966294D01*
X94733987Y-111013979D01*
X94638616Y-111013979D01*
X94543246Y-110966294D01*
X94495561Y-110918609D01*
X94447875Y-110823238D01*
X94400190Y-110632497D01*
X94400190Y-110394071D01*
X94447875Y-110203330D01*
X94495561Y-110107960D01*
X94543246Y-110060275D01*
X94638616Y-110012589D01*
G04 #@! TO.C,R1*
D14*
X73222380Y-166536666D02*
X72746190Y-166870000D01*
X73222380Y-167108095D02*
X72222380Y-167108095D01*
X72222380Y-166727142D01*
X72270000Y-166631904D01*
X72317619Y-166584285D01*
X72412857Y-166536666D01*
X72555714Y-166536666D01*
X72650952Y-166584285D01*
X72698571Y-166631904D01*
X72746190Y-166727142D01*
X72746190Y-167108095D01*
X73222380Y-165584285D02*
X73222380Y-166155714D01*
X73222380Y-165870000D02*
X72222380Y-165870000D01*
X72365238Y-165965238D01*
X72460476Y-166060476D01*
X72508095Y-166155714D01*
X67382380Y-167036666D02*
X67382380Y-167608095D01*
X67382380Y-167322380D02*
X66382380Y-167322380D01*
X66525238Y-167417619D01*
X66620476Y-167512857D01*
X66668095Y-167608095D01*
X66477619Y-166655714D02*
X66430000Y-166608095D01*
X66382380Y-166512857D01*
X66382380Y-166274761D01*
X66430000Y-166179523D01*
X66477619Y-166131904D01*
X66572857Y-166084285D01*
X66668095Y-166084285D01*
X66810952Y-166131904D01*
X67382380Y-166703333D01*
X67382380Y-166084285D01*
X66382380Y-165465238D02*
X66382380Y-165370000D01*
X66430000Y-165274761D01*
X66477619Y-165227142D01*
X66572857Y-165179523D01*
X66763333Y-165131904D01*
X67001428Y-165131904D01*
X67191904Y-165179523D01*
X67287142Y-165227142D01*
X67334761Y-165274761D01*
X67382380Y-165370000D01*
X67382380Y-165465238D01*
X67334761Y-165560476D01*
X67287142Y-165608095D01*
X67191904Y-165655714D01*
X67001428Y-165703333D01*
X66763333Y-165703333D01*
X66572857Y-165655714D01*
X66477619Y-165608095D01*
X66430000Y-165560476D01*
X66382380Y-165465238D01*
G04 #@! TO.C,R2*
X85542380Y-117006666D02*
X85066190Y-117340000D01*
X85542380Y-117578095D02*
X84542380Y-117578095D01*
X84542380Y-117197142D01*
X84590000Y-117101904D01*
X84637619Y-117054285D01*
X84732857Y-117006666D01*
X84875714Y-117006666D01*
X84970952Y-117054285D01*
X85018571Y-117101904D01*
X85066190Y-117197142D01*
X85066190Y-117578095D01*
X84637619Y-116625714D02*
X84590000Y-116578095D01*
X84542380Y-116482857D01*
X84542380Y-116244761D01*
X84590000Y-116149523D01*
X84637619Y-116101904D01*
X84732857Y-116054285D01*
X84828095Y-116054285D01*
X84970952Y-116101904D01*
X85542380Y-116673333D01*
X85542380Y-116054285D01*
X85542380Y-129659047D02*
X85542380Y-130230476D01*
X85542380Y-129944761D02*
X84542380Y-129944761D01*
X84685238Y-130040000D01*
X84780476Y-130135238D01*
X84828095Y-130230476D01*
X85542380Y-129230476D02*
X84542380Y-129230476D01*
X85161428Y-129135238D02*
X85542380Y-128849523D01*
X84875714Y-128849523D02*
X85256666Y-129230476D01*
G04 #@! TO.C,R3*
X90368380Y-117006666D02*
X89892190Y-117340000D01*
X90368380Y-117578095D02*
X89368380Y-117578095D01*
X89368380Y-117197142D01*
X89416000Y-117101904D01*
X89463619Y-117054285D01*
X89558857Y-117006666D01*
X89701714Y-117006666D01*
X89796952Y-117054285D01*
X89844571Y-117101904D01*
X89892190Y-117197142D01*
X89892190Y-117578095D01*
X89368380Y-116673333D02*
X89368380Y-116054285D01*
X89749333Y-116387619D01*
X89749333Y-116244761D01*
X89796952Y-116149523D01*
X89844571Y-116101904D01*
X89939809Y-116054285D01*
X90177904Y-116054285D01*
X90273142Y-116101904D01*
X90320761Y-116149523D01*
X90368380Y-116244761D01*
X90368380Y-116530476D01*
X90320761Y-116625714D01*
X90273142Y-116673333D01*
X90622380Y-129659047D02*
X90622380Y-130230476D01*
X90622380Y-129944761D02*
X89622380Y-129944761D01*
X89765238Y-130040000D01*
X89860476Y-130135238D01*
X89908095Y-130230476D01*
X90622380Y-129230476D02*
X89622380Y-129230476D01*
X90241428Y-129135238D02*
X90622380Y-128849523D01*
X89955714Y-128849523D02*
X90336666Y-129230476D01*
G04 #@! TO.C,R4*
X95702380Y-117006666D02*
X95226190Y-117340000D01*
X95702380Y-117578095D02*
X94702380Y-117578095D01*
X94702380Y-117197142D01*
X94750000Y-117101904D01*
X94797619Y-117054285D01*
X94892857Y-117006666D01*
X95035714Y-117006666D01*
X95130952Y-117054285D01*
X95178571Y-117101904D01*
X95226190Y-117197142D01*
X95226190Y-117578095D01*
X95035714Y-116149523D02*
X95702380Y-116149523D01*
X94654761Y-116387619D02*
X95369047Y-116625714D01*
X95369047Y-116006666D01*
X95702380Y-129659047D02*
X95702380Y-130230476D01*
X95702380Y-129944761D02*
X94702380Y-129944761D01*
X94845238Y-130040000D01*
X94940476Y-130135238D01*
X94988095Y-130230476D01*
X95702380Y-129230476D02*
X94702380Y-129230476D01*
X95321428Y-129135238D02*
X95702380Y-128849523D01*
X95035714Y-128849523D02*
X95416666Y-129230476D01*
G04 #@! TO.C,R5*
X100782380Y-117006666D02*
X100306190Y-117340000D01*
X100782380Y-117578095D02*
X99782380Y-117578095D01*
X99782380Y-117197142D01*
X99830000Y-117101904D01*
X99877619Y-117054285D01*
X99972857Y-117006666D01*
X100115714Y-117006666D01*
X100210952Y-117054285D01*
X100258571Y-117101904D01*
X100306190Y-117197142D01*
X100306190Y-117578095D01*
X99782380Y-116101904D02*
X99782380Y-116578095D01*
X100258571Y-116625714D01*
X100210952Y-116578095D01*
X100163333Y-116482857D01*
X100163333Y-116244761D01*
X100210952Y-116149523D01*
X100258571Y-116101904D01*
X100353809Y-116054285D01*
X100591904Y-116054285D01*
X100687142Y-116101904D01*
X100734761Y-116149523D01*
X100782380Y-116244761D01*
X100782380Y-116482857D01*
X100734761Y-116578095D01*
X100687142Y-116625714D01*
X100782380Y-129659047D02*
X100782380Y-130230476D01*
X100782380Y-129944761D02*
X99782380Y-129944761D01*
X99925238Y-130040000D01*
X100020476Y-130135238D01*
X100068095Y-130230476D01*
X100782380Y-129230476D02*
X99782380Y-129230476D01*
X100401428Y-129135238D02*
X100782380Y-128849523D01*
X100115714Y-128849523D02*
X100496666Y-129230476D01*
G04 #@! TO.C,U1*
X68454095Y-141704380D02*
X68454095Y-142513904D01*
X68501714Y-142609142D01*
X68549333Y-142656761D01*
X68644571Y-142704380D01*
X68835047Y-142704380D01*
X68930285Y-142656761D01*
X68977904Y-142609142D01*
X69025523Y-142513904D01*
X69025523Y-141704380D01*
X70025523Y-142704380D02*
X69454095Y-142704380D01*
X69739809Y-142704380D02*
X69739809Y-141704380D01*
X69644571Y-141847238D01*
X69549333Y-141942476D01*
X69454095Y-141990095D01*
X65311238Y-127598666D02*
X65787428Y-127598666D01*
X65216000Y-127884380D02*
X65549333Y-126884380D01*
X65882666Y-127884380D01*
X66549333Y-127360571D02*
X66216000Y-127360571D01*
X66216000Y-127884380D02*
X66216000Y-126884380D01*
X66692190Y-126884380D01*
X67073142Y-127503428D02*
X67835047Y-127503428D01*
X68787428Y-127884380D02*
X68311238Y-127884380D01*
X68311238Y-126884380D01*
X69120761Y-127884380D02*
X69120761Y-126884380D01*
X69549333Y-127836761D02*
X69692190Y-127884380D01*
X69930285Y-127884380D01*
X70025523Y-127836761D01*
X70073142Y-127789142D01*
X70120761Y-127693904D01*
X70120761Y-127598666D01*
X70073142Y-127503428D01*
X70025523Y-127455809D01*
X69930285Y-127408190D01*
X69739809Y-127360571D01*
X69644571Y-127312952D01*
X69596952Y-127265333D01*
X69549333Y-127170095D01*
X69549333Y-127074857D01*
X69596952Y-126979619D01*
X69644571Y-126932000D01*
X69739809Y-126884380D01*
X69977904Y-126884380D01*
X70120761Y-126932000D01*
X70454095Y-126884380D02*
X71073142Y-126884380D01*
X70739809Y-127265333D01*
X70882666Y-127265333D01*
X70977904Y-127312952D01*
X71025523Y-127360571D01*
X71073142Y-127455809D01*
X71073142Y-127693904D01*
X71025523Y-127789142D01*
X70977904Y-127836761D01*
X70882666Y-127884380D01*
X70596952Y-127884380D01*
X70501714Y-127836761D01*
X70454095Y-127789142D01*
X71501714Y-127884380D02*
X71501714Y-126884380D01*
X71739809Y-126884380D01*
X71882666Y-126932000D01*
X71977904Y-127027238D01*
X72025523Y-127122476D01*
X72073142Y-127312952D01*
X72073142Y-127455809D01*
X72025523Y-127646285D01*
X71977904Y-127741523D01*
X71882666Y-127836761D01*
X71739809Y-127884380D01*
X71501714Y-127884380D01*
X72501714Y-127884380D02*
X72501714Y-126884380D01*
X72501714Y-127360571D02*
X73073142Y-127360571D01*
X73073142Y-127884380D02*
X73073142Y-126884380D01*
G04 #@! TO.C,U2*
X60198095Y-158792380D02*
X60198095Y-159601904D01*
X60245714Y-159697142D01*
X60293333Y-159744761D01*
X60388571Y-159792380D01*
X60579047Y-159792380D01*
X60674285Y-159744761D01*
X60721904Y-159697142D01*
X60769523Y-159601904D01*
X60769523Y-158792380D01*
X61198095Y-158887619D02*
X61245714Y-158840000D01*
X61340952Y-158792380D01*
X61579047Y-158792380D01*
X61674285Y-158840000D01*
X61721904Y-158887619D01*
X61769523Y-158982857D01*
X61769523Y-159078095D01*
X61721904Y-159220952D01*
X61150476Y-159792380D01*
X61769523Y-159792380D01*
X55745714Y-172072380D02*
X55745714Y-171072380D01*
X56079047Y-171786666D01*
X56412380Y-171072380D01*
X56412380Y-172072380D01*
X57460000Y-171977142D02*
X57412380Y-172024761D01*
X57269523Y-172072380D01*
X57174285Y-172072380D01*
X57031428Y-172024761D01*
X56936190Y-171929523D01*
X56888571Y-171834285D01*
X56840952Y-171643809D01*
X56840952Y-171500952D01*
X56888571Y-171310476D01*
X56936190Y-171215238D01*
X57031428Y-171120000D01*
X57174285Y-171072380D01*
X57269523Y-171072380D01*
X57412380Y-171120000D01*
X57460000Y-171167619D01*
X57888571Y-172072380D02*
X57888571Y-171072380D01*
X58269523Y-171072380D01*
X58364761Y-171120000D01*
X58412380Y-171167619D01*
X58460000Y-171262857D01*
X58460000Y-171405714D01*
X58412380Y-171500952D01*
X58364761Y-171548571D01*
X58269523Y-171596190D01*
X57888571Y-171596190D01*
X58840952Y-171167619D02*
X58888571Y-171120000D01*
X58983809Y-171072380D01*
X59221904Y-171072380D01*
X59317142Y-171120000D01*
X59364761Y-171167619D01*
X59412380Y-171262857D01*
X59412380Y-171358095D01*
X59364761Y-171500952D01*
X58793333Y-172072380D01*
X59412380Y-172072380D01*
X60317142Y-171072380D02*
X59840952Y-171072380D01*
X59793333Y-171548571D01*
X59840952Y-171500952D01*
X59936190Y-171453333D01*
X60174285Y-171453333D01*
X60269523Y-171500952D01*
X60317142Y-171548571D01*
X60364761Y-171643809D01*
X60364761Y-171881904D01*
X60317142Y-171977142D01*
X60269523Y-172024761D01*
X60174285Y-172072380D01*
X59936190Y-172072380D01*
X59840952Y-172024761D01*
X59793333Y-171977142D01*
X61269523Y-171072380D02*
X60793333Y-171072380D01*
X60745714Y-171548571D01*
X60793333Y-171500952D01*
X60888571Y-171453333D01*
X61126666Y-171453333D01*
X61221904Y-171500952D01*
X61269523Y-171548571D01*
X61317142Y-171643809D01*
X61317142Y-171881904D01*
X61269523Y-171977142D01*
X61221904Y-172024761D01*
X61126666Y-172072380D01*
X60888571Y-172072380D01*
X60793333Y-172024761D01*
X60745714Y-171977142D01*
X62269523Y-172072380D02*
X61698095Y-172072380D01*
X61983809Y-172072380D02*
X61983809Y-171072380D01*
X61888571Y-171215238D01*
X61793333Y-171310476D01*
X61698095Y-171358095D01*
X62698095Y-171691428D02*
X63460000Y-171691428D01*
X63936190Y-172072380D02*
X63936190Y-171072380D01*
X64412380Y-171691428D02*
X65174285Y-171691428D01*
X65650476Y-172072380D02*
X65650476Y-171072380D01*
X66031428Y-171072380D01*
X66126666Y-171120000D01*
X66174285Y-171167619D01*
X66221904Y-171262857D01*
X66221904Y-171405714D01*
X66174285Y-171500952D01*
X66126666Y-171548571D01*
X66031428Y-171596190D01*
X65650476Y-171596190D01*
G04 #@! TO.C,U3*
X52042780Y-103448904D02*
X52852304Y-103448904D01*
X52947542Y-103401285D01*
X52995161Y-103353666D01*
X53042780Y-103258428D01*
X53042780Y-103067952D01*
X52995161Y-102972714D01*
X52947542Y-102925095D01*
X52852304Y-102877476D01*
X52042780Y-102877476D01*
X52042780Y-102496523D02*
X52042780Y-101877476D01*
X52423733Y-102210809D01*
X52423733Y-102067952D01*
X52471352Y-101972714D01*
X52518971Y-101925095D01*
X52614209Y-101877476D01*
X52852304Y-101877476D01*
X52947542Y-101925095D01*
X52995161Y-101972714D01*
X53042780Y-102067952D01*
X53042780Y-102353666D01*
X52995161Y-102448904D01*
X52947542Y-102496523D01*
X72362780Y-106258428D02*
X72362780Y-105687000D01*
X73362780Y-105972714D02*
X72362780Y-105972714D01*
X73315161Y-104972714D02*
X73362780Y-105067952D01*
X73362780Y-105258428D01*
X73315161Y-105353666D01*
X73219923Y-105401285D01*
X72838971Y-105401285D01*
X72743733Y-105353666D01*
X72696114Y-105258428D01*
X72696114Y-105067952D01*
X72743733Y-104972714D01*
X72838971Y-104925095D01*
X72934209Y-104925095D01*
X73029447Y-105401285D01*
X73315161Y-104115571D02*
X73362780Y-104210809D01*
X73362780Y-104401285D01*
X73315161Y-104496523D01*
X73219923Y-104544142D01*
X72838971Y-104544142D01*
X72743733Y-104496523D01*
X72696114Y-104401285D01*
X72696114Y-104210809D01*
X72743733Y-104115571D01*
X72838971Y-104067952D01*
X72934209Y-104067952D01*
X73029447Y-104544142D01*
X72696114Y-103639380D02*
X73362780Y-103639380D01*
X72791352Y-103639380D02*
X72743733Y-103591761D01*
X72696114Y-103496523D01*
X72696114Y-103353666D01*
X72743733Y-103258428D01*
X72838971Y-103210809D01*
X73362780Y-103210809D01*
X73315161Y-102782238D02*
X73362780Y-102687000D01*
X73362780Y-102496523D01*
X73315161Y-102401285D01*
X73219923Y-102353666D01*
X73172304Y-102353666D01*
X73077066Y-102401285D01*
X73029447Y-102496523D01*
X73029447Y-102639380D01*
X72981828Y-102734619D01*
X72886590Y-102782238D01*
X72838971Y-102782238D01*
X72743733Y-102734619D01*
X72696114Y-102639380D01*
X72696114Y-102496523D01*
X72743733Y-102401285D01*
X72696114Y-102020333D02*
X73362780Y-101782238D01*
X72696114Y-101544142D02*
X73362780Y-101782238D01*
X73600876Y-101877476D01*
X73648495Y-101925095D01*
X73696114Y-102020333D01*
X72362780Y-101258428D02*
X72362780Y-100639380D01*
X72743733Y-100972714D01*
X72743733Y-100829857D01*
X72791352Y-100734619D01*
X72838971Y-100687000D01*
X72934209Y-100639380D01*
X73172304Y-100639380D01*
X73267542Y-100687000D01*
X73315161Y-100734619D01*
X73362780Y-100829857D01*
X73362780Y-101115571D01*
X73315161Y-101210809D01*
X73267542Y-101258428D01*
X73267542Y-100210809D02*
X73315161Y-100163190D01*
X73362780Y-100210809D01*
X73315161Y-100258428D01*
X73267542Y-100210809D01*
X73362780Y-100210809D01*
X72458019Y-99782238D02*
X72410400Y-99734619D01*
X72362780Y-99639380D01*
X72362780Y-99401285D01*
X72410400Y-99306047D01*
X72458019Y-99258428D01*
X72553257Y-99210809D01*
X72648495Y-99210809D01*
X72791352Y-99258428D01*
X73362780Y-99829857D01*
X73362780Y-99210809D01*
X58734209Y-112299380D02*
X59305638Y-112299380D01*
X59019923Y-113299380D02*
X59019923Y-112299380D01*
X59543733Y-112299380D02*
X60162780Y-112299380D01*
X59829447Y-112680333D01*
X59972304Y-112680333D01*
X60067542Y-112727952D01*
X60115161Y-112775571D01*
X60162780Y-112870809D01*
X60162780Y-113108904D01*
X60115161Y-113204142D01*
X60067542Y-113251761D01*
X59972304Y-113299380D01*
X59686590Y-113299380D01*
X59591352Y-113251761D01*
X59543733Y-113204142D01*
X60591352Y-113204142D02*
X60638971Y-113251761D01*
X60591352Y-113299380D01*
X60543733Y-113251761D01*
X60591352Y-113204142D01*
X60591352Y-113299380D01*
X61019923Y-112394619D02*
X61067542Y-112347000D01*
X61162780Y-112299380D01*
X61400876Y-112299380D01*
X61496114Y-112347000D01*
X61543733Y-112394619D01*
X61591352Y-112489857D01*
X61591352Y-112585095D01*
X61543733Y-112727952D01*
X60972304Y-113299380D01*
X61591352Y-113299380D01*
X58734209Y-108489380D02*
X59305638Y-108489380D01*
X59019923Y-109489380D02*
X59019923Y-108489380D01*
X59543733Y-108489380D02*
X60162780Y-108489380D01*
X59829447Y-108870333D01*
X59972304Y-108870333D01*
X60067542Y-108917952D01*
X60115161Y-108965571D01*
X60162780Y-109060809D01*
X60162780Y-109298904D01*
X60115161Y-109394142D01*
X60067542Y-109441761D01*
X59972304Y-109489380D01*
X59686590Y-109489380D01*
X59591352Y-109441761D01*
X59543733Y-109394142D01*
X60591352Y-109394142D02*
X60638971Y-109441761D01*
X60591352Y-109489380D01*
X60543733Y-109441761D01*
X60591352Y-109394142D01*
X60591352Y-109489380D01*
X61591352Y-109489380D02*
X61019923Y-109489380D01*
X61305638Y-109489380D02*
X61305638Y-108489380D01*
X61210400Y-108632238D01*
X61115161Y-108727476D01*
X61019923Y-108775095D01*
G04 #@! TO.C,J6*
X43787380Y-110333333D02*
X44501666Y-110333333D01*
X44644523Y-110380952D01*
X44739761Y-110476190D01*
X44787380Y-110619047D01*
X44787380Y-110714285D01*
X43787380Y-109428571D02*
X43787380Y-109619047D01*
X43835000Y-109714285D01*
X43882619Y-109761904D01*
X44025476Y-109857142D01*
X44215952Y-109904761D01*
X44596904Y-109904761D01*
X44692142Y-109857142D01*
X44739761Y-109809523D01*
X44787380Y-109714285D01*
X44787380Y-109523809D01*
X44739761Y-109428571D01*
X44692142Y-109380952D01*
X44596904Y-109333333D01*
X44358809Y-109333333D01*
X44263571Y-109380952D01*
X44215952Y-109428571D01*
X44168333Y-109523809D01*
X44168333Y-109714285D01*
X44215952Y-109809523D01*
X44263571Y-109857142D01*
X44358809Y-109904761D01*
X39928571Y-115112380D02*
X39357142Y-115112380D01*
X39642857Y-115112380D02*
X39642857Y-114112380D01*
X39547619Y-114255238D01*
X39452380Y-114350476D01*
X39357142Y-114398095D01*
X40309523Y-114207619D02*
X40357142Y-114160000D01*
X40452380Y-114112380D01*
X40690476Y-114112380D01*
X40785714Y-114160000D01*
X40833333Y-114207619D01*
X40880952Y-114302857D01*
X40880952Y-114398095D01*
X40833333Y-114540952D01*
X40261904Y-115112380D01*
X40880952Y-115112380D01*
X41214285Y-114445714D02*
X41452380Y-115112380D01*
X41690476Y-114445714D01*
G04 #@! TO.C,J7*
X43787380Y-115333333D02*
X44501666Y-115333333D01*
X44644523Y-115380952D01*
X44739761Y-115476190D01*
X44787380Y-115619047D01*
X44787380Y-115714285D01*
X43787380Y-114952380D02*
X43787380Y-114285714D01*
X44787380Y-114714285D01*
X36476190Y-120452380D02*
X36476190Y-119785714D01*
X36476190Y-119976190D02*
X36523809Y-119880952D01*
X36571428Y-119833333D01*
X36666666Y-119785714D01*
X36761904Y-119785714D01*
X37476190Y-120404761D02*
X37380952Y-120452380D01*
X37190476Y-120452380D01*
X37095238Y-120404761D01*
X37047619Y-120309523D01*
X37047619Y-119928571D01*
X37095238Y-119833333D01*
X37190476Y-119785714D01*
X37380952Y-119785714D01*
X37476190Y-119833333D01*
X37523809Y-119928571D01*
X37523809Y-120023809D01*
X37047619Y-120119047D01*
X38380952Y-119785714D02*
X38380952Y-120595238D01*
X38333333Y-120690476D01*
X38285714Y-120738095D01*
X38190476Y-120785714D01*
X38047619Y-120785714D01*
X37952380Y-120738095D01*
X38380952Y-120404761D02*
X38285714Y-120452380D01*
X38095238Y-120452380D01*
X38000000Y-120404761D01*
X37952380Y-120357142D01*
X37904761Y-120261904D01*
X37904761Y-119976190D01*
X37952380Y-119880952D01*
X38000000Y-119833333D01*
X38095238Y-119785714D01*
X38285714Y-119785714D01*
X38380952Y-119833333D01*
X39285714Y-119785714D02*
X39285714Y-120452380D01*
X38857142Y-119785714D02*
X38857142Y-120309523D01*
X38904761Y-120404761D01*
X39000000Y-120452380D01*
X39142857Y-120452380D01*
X39238095Y-120404761D01*
X39285714Y-120357142D01*
X39904761Y-120452380D02*
X39809523Y-120404761D01*
X39761904Y-120309523D01*
X39761904Y-119452380D01*
X40714285Y-120452380D02*
X40714285Y-119928571D01*
X40666666Y-119833333D01*
X40571428Y-119785714D01*
X40380952Y-119785714D01*
X40285714Y-119833333D01*
X40714285Y-120404761D02*
X40619047Y-120452380D01*
X40380952Y-120452380D01*
X40285714Y-120404761D01*
X40238095Y-120309523D01*
X40238095Y-120214285D01*
X40285714Y-120119047D01*
X40380952Y-120071428D01*
X40619047Y-120071428D01*
X40714285Y-120023809D01*
X41047619Y-119785714D02*
X41428571Y-119785714D01*
X41190476Y-119452380D02*
X41190476Y-120309523D01*
X41238095Y-120404761D01*
X41333333Y-120452380D01*
X41428571Y-120452380D01*
X42142857Y-120404761D02*
X42047619Y-120452380D01*
X41857142Y-120452380D01*
X41761904Y-120404761D01*
X41714285Y-120309523D01*
X41714285Y-119928571D01*
X41761904Y-119833333D01*
X41857142Y-119785714D01*
X42047619Y-119785714D01*
X42142857Y-119833333D01*
X42190476Y-119928571D01*
X42190476Y-120023809D01*
X41714285Y-120119047D01*
X43047619Y-120452380D02*
X43047619Y-119452380D01*
X43047619Y-120404761D02*
X42952380Y-120452380D01*
X42761904Y-120452380D01*
X42666666Y-120404761D01*
X42619047Y-120357142D01*
X42571428Y-120261904D01*
X42571428Y-119976190D01*
X42619047Y-119880952D01*
X42666666Y-119833333D01*
X42761904Y-119785714D01*
X42952380Y-119785714D01*
X43047619Y-119833333D01*
X44761904Y-119452380D02*
X44285714Y-119452380D01*
X44238095Y-119928571D01*
X44285714Y-119880952D01*
X44380952Y-119833333D01*
X44619047Y-119833333D01*
X44714285Y-119880952D01*
X44761904Y-119928571D01*
X44809523Y-120023809D01*
X44809523Y-120261904D01*
X44761904Y-120357142D01*
X44714285Y-120404761D01*
X44619047Y-120452380D01*
X44380952Y-120452380D01*
X44285714Y-120404761D01*
X44238095Y-120357142D01*
X45142857Y-119785714D02*
X45380952Y-120452380D01*
X45619047Y-119785714D01*
G04 #@! TO.C,U4*
X40778095Y-123182380D02*
X40778095Y-123991904D01*
X40825714Y-124087142D01*
X40873333Y-124134761D01*
X40968571Y-124182380D01*
X41159047Y-124182380D01*
X41254285Y-124134761D01*
X41301904Y-124087142D01*
X41349523Y-123991904D01*
X41349523Y-123182380D01*
X42254285Y-123515714D02*
X42254285Y-124182380D01*
X42016190Y-123134761D02*
X41778095Y-123849047D01*
X42397142Y-123849047D01*
X39944761Y-130952380D02*
X39468571Y-130952380D01*
X39468571Y-129952380D01*
X40182857Y-129952380D02*
X40849523Y-129952380D01*
X40420952Y-130952380D01*
X41373333Y-130380952D02*
X41278095Y-130333333D01*
X41230476Y-130285714D01*
X41182857Y-130190476D01*
X41182857Y-130142857D01*
X41230476Y-130047619D01*
X41278095Y-130000000D01*
X41373333Y-129952380D01*
X41563809Y-129952380D01*
X41659047Y-130000000D01*
X41706666Y-130047619D01*
X41754285Y-130142857D01*
X41754285Y-130190476D01*
X41706666Y-130285714D01*
X41659047Y-130333333D01*
X41563809Y-130380952D01*
X41373333Y-130380952D01*
X41278095Y-130428571D01*
X41230476Y-130476190D01*
X41182857Y-130571428D01*
X41182857Y-130761904D01*
X41230476Y-130857142D01*
X41278095Y-130904761D01*
X41373333Y-130952380D01*
X41563809Y-130952380D01*
X41659047Y-130904761D01*
X41706666Y-130857142D01*
X41754285Y-130761904D01*
X41754285Y-130571428D01*
X41706666Y-130476190D01*
X41659047Y-130428571D01*
X41563809Y-130380952D01*
X42373333Y-129952380D02*
X42468571Y-129952380D01*
X42563809Y-130000000D01*
X42611428Y-130047619D01*
X42659047Y-130142857D01*
X42706666Y-130333333D01*
X42706666Y-130571428D01*
X42659047Y-130761904D01*
X42611428Y-130857142D01*
X42563809Y-130904761D01*
X42468571Y-130952380D01*
X42373333Y-130952380D01*
X42278095Y-130904761D01*
X42230476Y-130857142D01*
X42182857Y-130761904D01*
X42135238Y-130571428D01*
X42135238Y-130333333D01*
X42182857Y-130142857D01*
X42230476Y-130047619D01*
X42278095Y-130000000D01*
X42373333Y-129952380D01*
X43611428Y-129952380D02*
X43135238Y-129952380D01*
X43087619Y-130428571D01*
X43135238Y-130380952D01*
X43230476Y-130333333D01*
X43468571Y-130333333D01*
X43563809Y-130380952D01*
X43611428Y-130428571D01*
X43659047Y-130523809D01*
X43659047Y-130761904D01*
X43611428Y-130857142D01*
X43563809Y-130904761D01*
X43468571Y-130952380D01*
X43230476Y-130952380D01*
X43135238Y-130904761D01*
X43087619Y-130857142D01*
G04 #@! TO.C,C3*
X45833333Y-147857142D02*
X45785714Y-147904761D01*
X45642857Y-147952380D01*
X45547619Y-147952380D01*
X45404761Y-147904761D01*
X45309523Y-147809523D01*
X45261904Y-147714285D01*
X45214285Y-147523809D01*
X45214285Y-147380952D01*
X45261904Y-147190476D01*
X45309523Y-147095238D01*
X45404761Y-147000000D01*
X45547619Y-146952380D01*
X45642857Y-146952380D01*
X45785714Y-147000000D01*
X45833333Y-147047619D01*
X46166666Y-146952380D02*
X46785714Y-146952380D01*
X46452380Y-147333333D01*
X46595238Y-147333333D01*
X46690476Y-147380952D01*
X46738095Y-147428571D01*
X46785714Y-147523809D01*
X46785714Y-147761904D01*
X46738095Y-147857142D01*
X46690476Y-147904761D01*
X46595238Y-147952380D01*
X46309523Y-147952380D01*
X46214285Y-147904761D01*
X46166666Y-147857142D01*
X40127142Y-155840714D02*
X40127142Y-156507380D01*
X39889047Y-155459761D02*
X39650952Y-156174047D01*
X40270000Y-156174047D01*
X40555714Y-155507380D02*
X41222380Y-155507380D01*
X40793809Y-156507380D01*
X41793809Y-155507380D02*
X41889047Y-155507380D01*
X41984285Y-155555000D01*
X42031904Y-155602619D01*
X42079523Y-155697857D01*
X42127142Y-155888333D01*
X42127142Y-156126428D01*
X42079523Y-156316904D01*
X42031904Y-156412142D01*
X41984285Y-156459761D01*
X41889047Y-156507380D01*
X41793809Y-156507380D01*
X41698571Y-156459761D01*
X41650952Y-156412142D01*
X41603333Y-156316904D01*
X41555714Y-156126428D01*
X41555714Y-155888333D01*
X41603333Y-155697857D01*
X41650952Y-155602619D01*
X41698571Y-155555000D01*
X41793809Y-155507380D01*
X42984285Y-155840714D02*
X42984285Y-156507380D01*
X42555714Y-155840714D02*
X42555714Y-156364523D01*
X42603333Y-156459761D01*
X42698571Y-156507380D01*
X42841428Y-156507380D01*
X42936666Y-156459761D01*
X42984285Y-156412142D01*
X43793809Y-155983571D02*
X43460476Y-155983571D01*
X43460476Y-156507380D02*
X43460476Y-155507380D01*
X43936666Y-155507380D01*
G04 #@! TO.C,C4*
X41418333Y-155662142D02*
X41370714Y-155709761D01*
X41227857Y-155757380D01*
X41132619Y-155757380D01*
X40989761Y-155709761D01*
X40894523Y-155614523D01*
X40846904Y-155519285D01*
X40799285Y-155328809D01*
X40799285Y-155185952D01*
X40846904Y-154995476D01*
X40894523Y-154900238D01*
X40989761Y-154805000D01*
X41132619Y-154757380D01*
X41227857Y-154757380D01*
X41370714Y-154805000D01*
X41418333Y-154852619D01*
X42275476Y-155090714D02*
X42275476Y-155757380D01*
X42037380Y-154709761D02*
X41799285Y-155424047D01*
X42418333Y-155424047D01*
G04 #@! TO.C,C5*
X41418333Y-162647142D02*
X41370714Y-162694761D01*
X41227857Y-162742380D01*
X41132619Y-162742380D01*
X40989761Y-162694761D01*
X40894523Y-162599523D01*
X40846904Y-162504285D01*
X40799285Y-162313809D01*
X40799285Y-162170952D01*
X40846904Y-161980476D01*
X40894523Y-161885238D01*
X40989761Y-161790000D01*
X41132619Y-161742380D01*
X41227857Y-161742380D01*
X41370714Y-161790000D01*
X41418333Y-161837619D01*
X42323095Y-161742380D02*
X41846904Y-161742380D01*
X41799285Y-162218571D01*
X41846904Y-162170952D01*
X41942142Y-162123333D01*
X42180238Y-162123333D01*
X42275476Y-162170952D01*
X42323095Y-162218571D01*
X42370714Y-162313809D01*
X42370714Y-162551904D01*
X42323095Y-162647142D01*
X42275476Y-162694761D01*
X42180238Y-162742380D01*
X41942142Y-162742380D01*
X41846904Y-162694761D01*
X41799285Y-162647142D01*
G04 #@! TO.C,C6*
X47853333Y-154457142D02*
X47805714Y-154504761D01*
X47662857Y-154552380D01*
X47567619Y-154552380D01*
X47424761Y-154504761D01*
X47329523Y-154409523D01*
X47281904Y-154314285D01*
X47234285Y-154123809D01*
X47234285Y-153980952D01*
X47281904Y-153790476D01*
X47329523Y-153695238D01*
X47424761Y-153600000D01*
X47567619Y-153552380D01*
X47662857Y-153552380D01*
X47805714Y-153600000D01*
X47853333Y-153647619D01*
X48710476Y-153552380D02*
X48520000Y-153552380D01*
X48424761Y-153600000D01*
X48377142Y-153647619D01*
X48281904Y-153790476D01*
X48234285Y-153980952D01*
X48234285Y-154361904D01*
X48281904Y-154457142D01*
X48329523Y-154504761D01*
X48424761Y-154552380D01*
X48615238Y-154552380D01*
X48710476Y-154504761D01*
X48758095Y-154457142D01*
X48805714Y-154361904D01*
X48805714Y-154123809D01*
X48758095Y-154028571D01*
X48710476Y-153980952D01*
X48615238Y-153933333D01*
X48424761Y-153933333D01*
X48329523Y-153980952D01*
X48281904Y-154028571D01*
X48234285Y-154123809D01*
X45377142Y-146885714D02*
X45377142Y-147552380D01*
X45139047Y-146504761D02*
X44900952Y-147219047D01*
X45520000Y-147219047D01*
X45805714Y-146552380D02*
X46472380Y-146552380D01*
X46043809Y-147552380D01*
X47043809Y-146552380D02*
X47139047Y-146552380D01*
X47234285Y-146600000D01*
X47281904Y-146647619D01*
X47329523Y-146742857D01*
X47377142Y-146933333D01*
X47377142Y-147171428D01*
X47329523Y-147361904D01*
X47281904Y-147457142D01*
X47234285Y-147504761D01*
X47139047Y-147552380D01*
X47043809Y-147552380D01*
X46948571Y-147504761D01*
X46900952Y-147457142D01*
X46853333Y-147361904D01*
X46805714Y-147171428D01*
X46805714Y-146933333D01*
X46853333Y-146742857D01*
X46900952Y-146647619D01*
X46948571Y-146600000D01*
X47043809Y-146552380D01*
X48234285Y-146885714D02*
X48234285Y-147552380D01*
X47805714Y-146885714D02*
X47805714Y-147409523D01*
X47853333Y-147504761D01*
X47948571Y-147552380D01*
X48091428Y-147552380D01*
X48186666Y-147504761D01*
X48234285Y-147457142D01*
X49043809Y-147028571D02*
X48710476Y-147028571D01*
X48710476Y-147552380D02*
X48710476Y-146552380D01*
X49186666Y-146552380D01*
G04 #@! TO.C,C7*
X50308333Y-155662142D02*
X50260714Y-155709761D01*
X50117857Y-155757380D01*
X50022619Y-155757380D01*
X49879761Y-155709761D01*
X49784523Y-155614523D01*
X49736904Y-155519285D01*
X49689285Y-155328809D01*
X49689285Y-155185952D01*
X49736904Y-154995476D01*
X49784523Y-154900238D01*
X49879761Y-154805000D01*
X50022619Y-154757380D01*
X50117857Y-154757380D01*
X50260714Y-154805000D01*
X50308333Y-154852619D01*
X50641666Y-154757380D02*
X51308333Y-154757380D01*
X50879761Y-155757380D01*
G04 #@! TO.C,C8*
X50308333Y-162647142D02*
X50260714Y-162694761D01*
X50117857Y-162742380D01*
X50022619Y-162742380D01*
X49879761Y-162694761D01*
X49784523Y-162599523D01*
X49736904Y-162504285D01*
X49689285Y-162313809D01*
X49689285Y-162170952D01*
X49736904Y-161980476D01*
X49784523Y-161885238D01*
X49879761Y-161790000D01*
X50022619Y-161742380D01*
X50117857Y-161742380D01*
X50260714Y-161790000D01*
X50308333Y-161837619D01*
X50879761Y-162170952D02*
X50784523Y-162123333D01*
X50736904Y-162075714D01*
X50689285Y-161980476D01*
X50689285Y-161932857D01*
X50736904Y-161837619D01*
X50784523Y-161790000D01*
X50879761Y-161742380D01*
X51070238Y-161742380D01*
X51165476Y-161790000D01*
X51213095Y-161837619D01*
X51260714Y-161932857D01*
X51260714Y-161980476D01*
X51213095Y-162075714D01*
X51165476Y-162123333D01*
X51070238Y-162170952D01*
X50879761Y-162170952D01*
X50784523Y-162218571D01*
X50736904Y-162266190D01*
X50689285Y-162361428D01*
X50689285Y-162551904D01*
X50736904Y-162647142D01*
X50784523Y-162694761D01*
X50879761Y-162742380D01*
X51070238Y-162742380D01*
X51165476Y-162694761D01*
X51213095Y-162647142D01*
X51260714Y-162551904D01*
X51260714Y-162361428D01*
X51213095Y-162266190D01*
X51165476Y-162218571D01*
X51070238Y-162170952D01*
G04 #@! TO.C,J2*
X104698666Y-126068380D02*
X104698666Y-126782666D01*
X104651047Y-126925523D01*
X104555809Y-127020761D01*
X104412952Y-127068380D01*
X104317714Y-127068380D01*
X105127238Y-126163619D02*
X105174857Y-126116000D01*
X105270095Y-126068380D01*
X105508190Y-126068380D01*
X105603428Y-126116000D01*
X105651047Y-126163619D01*
X105698666Y-126258857D01*
X105698666Y-126354095D01*
X105651047Y-126496952D01*
X105079619Y-127068380D01*
X105698666Y-127068380D01*
X99198666Y-114693142D02*
X99151047Y-114740761D01*
X99008190Y-114788380D01*
X98912952Y-114788380D01*
X98770095Y-114740761D01*
X98674857Y-114645523D01*
X98627238Y-114550285D01*
X98579619Y-114359809D01*
X98579619Y-114216952D01*
X98627238Y-114026476D01*
X98674857Y-113931238D01*
X98770095Y-113836000D01*
X98912952Y-113788380D01*
X99008190Y-113788380D01*
X99151047Y-113836000D01*
X99198666Y-113883619D01*
X99770095Y-114788380D02*
X99674857Y-114740761D01*
X99627238Y-114693142D01*
X99579619Y-114597904D01*
X99579619Y-114312190D01*
X99627238Y-114216952D01*
X99674857Y-114169333D01*
X99770095Y-114121714D01*
X99912952Y-114121714D01*
X100008190Y-114169333D01*
X100055809Y-114216952D01*
X100103428Y-114312190D01*
X100103428Y-114597904D01*
X100055809Y-114693142D01*
X100008190Y-114740761D01*
X99912952Y-114788380D01*
X99770095Y-114788380D01*
X100532000Y-114121714D02*
X100532000Y-114788380D01*
X100532000Y-114216952D02*
X100579619Y-114169333D01*
X100674857Y-114121714D01*
X100817714Y-114121714D01*
X100912952Y-114169333D01*
X100960571Y-114264571D01*
X100960571Y-114788380D01*
X101436761Y-114121714D02*
X101436761Y-114788380D01*
X101436761Y-114216952D02*
X101484380Y-114169333D01*
X101579619Y-114121714D01*
X101722476Y-114121714D01*
X101817714Y-114169333D01*
X101865333Y-114264571D01*
X101865333Y-114788380D01*
X102103428Y-114883619D02*
X102865333Y-114883619D01*
X103293904Y-113788380D02*
X103389142Y-113788380D01*
X103484380Y-113836000D01*
X103532000Y-113883619D01*
X103579619Y-113978857D01*
X103627238Y-114169333D01*
X103627238Y-114407428D01*
X103579619Y-114597904D01*
X103532000Y-114693142D01*
X103484380Y-114740761D01*
X103389142Y-114788380D01*
X103293904Y-114788380D01*
X103198666Y-114740761D01*
X103151047Y-114693142D01*
X103103428Y-114597904D01*
X103055809Y-114407428D01*
X103055809Y-114169333D01*
X103103428Y-113978857D01*
X103151047Y-113883619D01*
X103198666Y-113836000D01*
X103293904Y-113788380D01*
X104579619Y-114788380D02*
X104008190Y-114788380D01*
X104293904Y-114788380D02*
X104293904Y-113788380D01*
X104198666Y-113931238D01*
X104103428Y-114026476D01*
X104008190Y-114074095D01*
X104912952Y-114788380D02*
X105436761Y-114121714D01*
X104912952Y-114121714D02*
X105436761Y-114788380D01*
X106008190Y-113788380D02*
X106103428Y-113788380D01*
X106198666Y-113836000D01*
X106246285Y-113883619D01*
X106293904Y-113978857D01*
X106341523Y-114169333D01*
X106341523Y-114407428D01*
X106293904Y-114597904D01*
X106246285Y-114693142D01*
X106198666Y-114740761D01*
X106103428Y-114788380D01*
X106008190Y-114788380D01*
X105912952Y-114740761D01*
X105865333Y-114693142D01*
X105817714Y-114597904D01*
X105770095Y-114407428D01*
X105770095Y-114169333D01*
X105817714Y-113978857D01*
X105865333Y-113883619D01*
X105912952Y-113836000D01*
X106008190Y-113788380D01*
X107198666Y-114121714D02*
X107198666Y-114788380D01*
X106960571Y-113740761D02*
X106722476Y-114455047D01*
X107341523Y-114455047D01*
X107484380Y-114883619D02*
X108246285Y-114883619D01*
X108484380Y-114788380D02*
X108484380Y-113788380D01*
X108817714Y-114502666D01*
X109151047Y-113788380D01*
X109151047Y-114788380D01*
X110055809Y-114788380D02*
X110055809Y-114264571D01*
X110008190Y-114169333D01*
X109912952Y-114121714D01*
X109722476Y-114121714D01*
X109627238Y-114169333D01*
X110055809Y-114740761D02*
X109960571Y-114788380D01*
X109722476Y-114788380D01*
X109627238Y-114740761D01*
X109579619Y-114645523D01*
X109579619Y-114550285D01*
X109627238Y-114455047D01*
X109722476Y-114407428D01*
X109960571Y-114407428D01*
X110055809Y-114359809D01*
X110674857Y-114788380D02*
X110579619Y-114740761D01*
X110532000Y-114645523D01*
X110532000Y-113788380D01*
X111436761Y-114740761D02*
X111341523Y-114788380D01*
X111151047Y-114788380D01*
X111055809Y-114740761D01*
X111008190Y-114645523D01*
X111008190Y-114264571D01*
X111055809Y-114169333D01*
X111151047Y-114121714D01*
X111341523Y-114121714D01*
X111436761Y-114169333D01*
X111484380Y-114264571D01*
X111484380Y-114359809D01*
X111008190Y-114455047D01*
G04 #@! TO.C,J5*
X104666666Y-127622380D02*
X104666666Y-128336666D01*
X104619047Y-128479523D01*
X104523809Y-128574761D01*
X104380952Y-128622380D01*
X104285714Y-128622380D01*
X105619047Y-127622380D02*
X105142857Y-127622380D01*
X105095238Y-128098571D01*
X105142857Y-128050952D01*
X105238095Y-128003333D01*
X105476190Y-128003333D01*
X105571428Y-128050952D01*
X105619047Y-128098571D01*
X105666666Y-128193809D01*
X105666666Y-128431904D01*
X105619047Y-128527142D01*
X105571428Y-128574761D01*
X105476190Y-128622380D01*
X105238095Y-128622380D01*
X105142857Y-128574761D01*
X105095238Y-128527142D01*
G04 #@! TO.C,R6*
X88462380Y-160186666D02*
X87986190Y-160520000D01*
X88462380Y-160758095D02*
X87462380Y-160758095D01*
X87462380Y-160377142D01*
X87510000Y-160281904D01*
X87557619Y-160234285D01*
X87652857Y-160186666D01*
X87795714Y-160186666D01*
X87890952Y-160234285D01*
X87938571Y-160281904D01*
X87986190Y-160377142D01*
X87986190Y-160758095D01*
X87462380Y-159329523D02*
X87462380Y-159520000D01*
X87510000Y-159615238D01*
X87557619Y-159662857D01*
X87700476Y-159758095D01*
X87890952Y-159805714D01*
X88271904Y-159805714D01*
X88367142Y-159758095D01*
X88414761Y-159710476D01*
X88462380Y-159615238D01*
X88462380Y-159424761D01*
X88414761Y-159329523D01*
X88367142Y-159281904D01*
X88271904Y-159234285D01*
X88033809Y-159234285D01*
X87938571Y-159281904D01*
X87890952Y-159329523D01*
X87843333Y-159424761D01*
X87843333Y-159615238D01*
X87890952Y-159710476D01*
X87938571Y-159758095D01*
X88033809Y-159805714D01*
G04 #@! TO.C,U5*
X76588095Y-164127380D02*
X76588095Y-164936904D01*
X76635714Y-165032142D01*
X76683333Y-165079761D01*
X76778571Y-165127380D01*
X76969047Y-165127380D01*
X77064285Y-165079761D01*
X77111904Y-165032142D01*
X77159523Y-164936904D01*
X77159523Y-164127380D01*
X78111904Y-164127380D02*
X77635714Y-164127380D01*
X77588095Y-164603571D01*
X77635714Y-164555952D01*
X77730952Y-164508333D01*
X77969047Y-164508333D01*
X78064285Y-164555952D01*
X78111904Y-164603571D01*
X78159523Y-164698809D01*
X78159523Y-164936904D01*
X78111904Y-165032142D01*
X78064285Y-165079761D01*
X77969047Y-165127380D01*
X77730952Y-165127380D01*
X77635714Y-165079761D01*
X77588095Y-165032142D01*
X73183333Y-153327380D02*
X73183333Y-152327380D01*
X73564285Y-152327380D01*
X73659523Y-152375000D01*
X73707142Y-152422619D01*
X73754761Y-152517857D01*
X73754761Y-152660714D01*
X73707142Y-152755952D01*
X73659523Y-152803571D01*
X73564285Y-152851190D01*
X73183333Y-152851190D01*
X74754761Y-153232142D02*
X74707142Y-153279761D01*
X74564285Y-153327380D01*
X74469047Y-153327380D01*
X74326190Y-153279761D01*
X74230952Y-153184523D01*
X74183333Y-153089285D01*
X74135714Y-152898809D01*
X74135714Y-152755952D01*
X74183333Y-152565476D01*
X74230952Y-152470238D01*
X74326190Y-152375000D01*
X74469047Y-152327380D01*
X74564285Y-152327380D01*
X74707142Y-152375000D01*
X74754761Y-152422619D01*
X75135714Y-153041666D02*
X75611904Y-153041666D01*
X75040476Y-153327380D02*
X75373809Y-152327380D01*
X75707142Y-153327380D01*
X76088095Y-153327380D02*
X76278571Y-153327380D01*
X76373809Y-153279761D01*
X76421428Y-153232142D01*
X76516666Y-153089285D01*
X76564285Y-152898809D01*
X76564285Y-152517857D01*
X76516666Y-152422619D01*
X76469047Y-152375000D01*
X76373809Y-152327380D01*
X76183333Y-152327380D01*
X76088095Y-152375000D01*
X76040476Y-152422619D01*
X75992857Y-152517857D01*
X75992857Y-152755952D01*
X76040476Y-152851190D01*
X76088095Y-152898809D01*
X76183333Y-152946428D01*
X76373809Y-152946428D01*
X76469047Y-152898809D01*
X76516666Y-152851190D01*
X76564285Y-152755952D01*
X77421428Y-152327380D02*
X77230952Y-152327380D01*
X77135714Y-152375000D01*
X77088095Y-152422619D01*
X76992857Y-152565476D01*
X76945238Y-152755952D01*
X76945238Y-153136904D01*
X76992857Y-153232142D01*
X77040476Y-153279761D01*
X77135714Y-153327380D01*
X77326190Y-153327380D01*
X77421428Y-153279761D01*
X77469047Y-153232142D01*
X77516666Y-153136904D01*
X77516666Y-152898809D01*
X77469047Y-152803571D01*
X77421428Y-152755952D01*
X77326190Y-152708333D01*
X77135714Y-152708333D01*
X77040476Y-152755952D01*
X76992857Y-152803571D01*
X76945238Y-152898809D01*
X78088095Y-152755952D02*
X77992857Y-152708333D01*
X77945238Y-152660714D01*
X77897619Y-152565476D01*
X77897619Y-152517857D01*
X77945238Y-152422619D01*
X77992857Y-152375000D01*
X78088095Y-152327380D01*
X78278571Y-152327380D01*
X78373809Y-152375000D01*
X78421428Y-152422619D01*
X78469047Y-152517857D01*
X78469047Y-152565476D01*
X78421428Y-152660714D01*
X78373809Y-152708333D01*
X78278571Y-152755952D01*
X78088095Y-152755952D01*
X77992857Y-152803571D01*
X77945238Y-152851190D01*
X77897619Y-152946428D01*
X77897619Y-153136904D01*
X77945238Y-153232142D01*
X77992857Y-153279761D01*
X78088095Y-153327380D01*
X78278571Y-153327380D01*
X78373809Y-153279761D01*
X78421428Y-153232142D01*
X78469047Y-153136904D01*
X78469047Y-152946428D01*
X78421428Y-152851190D01*
X78373809Y-152803571D01*
X78278571Y-152755952D01*
X79373809Y-152327380D02*
X78897619Y-152327380D01*
X78850000Y-152803571D01*
X78897619Y-152755952D01*
X78992857Y-152708333D01*
X79230952Y-152708333D01*
X79326190Y-152755952D01*
X79373809Y-152803571D01*
X79421428Y-152898809D01*
X79421428Y-153136904D01*
X79373809Y-153232142D01*
X79326190Y-153279761D01*
X79230952Y-153327380D01*
X78992857Y-153327380D01*
X78897619Y-153279761D01*
X78850000Y-153232142D01*
X79850000Y-153327380D02*
X79850000Y-152327380D01*
X80230952Y-152327380D01*
X80326190Y-152375000D01*
X80373809Y-152422619D01*
X80421428Y-152517857D01*
X80421428Y-152660714D01*
X80373809Y-152755952D01*
X80326190Y-152803571D01*
X80230952Y-152851190D01*
X79850000Y-152851190D01*
X80754761Y-152327380D02*
X80992857Y-153327380D01*
X81183333Y-152613095D01*
X81373809Y-153327380D01*
X81611904Y-152327380D01*
G04 #@! TO.C,hole2*
X38806666Y-85852380D02*
X38806666Y-84852380D01*
X39235238Y-85852380D02*
X39235238Y-85328571D01*
X39187619Y-85233333D01*
X39092380Y-85185714D01*
X38949523Y-85185714D01*
X38854285Y-85233333D01*
X38806666Y-85280952D01*
X39854285Y-85852380D02*
X39759047Y-85804761D01*
X39711428Y-85757142D01*
X39663809Y-85661904D01*
X39663809Y-85376190D01*
X39711428Y-85280952D01*
X39759047Y-85233333D01*
X39854285Y-85185714D01*
X39997142Y-85185714D01*
X40092380Y-85233333D01*
X40140000Y-85280952D01*
X40187619Y-85376190D01*
X40187619Y-85661904D01*
X40140000Y-85757142D01*
X40092380Y-85804761D01*
X39997142Y-85852380D01*
X39854285Y-85852380D01*
X40759047Y-85852380D02*
X40663809Y-85804761D01*
X40616190Y-85709523D01*
X40616190Y-84852380D01*
X41520952Y-85804761D02*
X41425714Y-85852380D01*
X41235238Y-85852380D01*
X41140000Y-85804761D01*
X41092380Y-85709523D01*
X41092380Y-85328571D01*
X41140000Y-85233333D01*
X41235238Y-85185714D01*
X41425714Y-85185714D01*
X41520952Y-85233333D01*
X41568571Y-85328571D01*
X41568571Y-85423809D01*
X41092380Y-85519047D01*
X41949523Y-84947619D02*
X41997142Y-84900000D01*
X42092380Y-84852380D01*
X42330476Y-84852380D01*
X42425714Y-84900000D01*
X42473333Y-84947619D01*
X42520952Y-85042857D01*
X42520952Y-85138095D01*
X42473333Y-85280952D01*
X41901904Y-85852380D01*
X42520952Y-85852380D01*
G04 #@! TO.C,hole 1*
X38425714Y-172822380D02*
X38425714Y-171822380D01*
X38854285Y-172822380D02*
X38854285Y-172298571D01*
X38806666Y-172203333D01*
X38711428Y-172155714D01*
X38568571Y-172155714D01*
X38473333Y-172203333D01*
X38425714Y-172250952D01*
X39473333Y-172822380D02*
X39378095Y-172774761D01*
X39330476Y-172727142D01*
X39282857Y-172631904D01*
X39282857Y-172346190D01*
X39330476Y-172250952D01*
X39378095Y-172203333D01*
X39473333Y-172155714D01*
X39616190Y-172155714D01*
X39711428Y-172203333D01*
X39759047Y-172250952D01*
X39806666Y-172346190D01*
X39806666Y-172631904D01*
X39759047Y-172727142D01*
X39711428Y-172774761D01*
X39616190Y-172822380D01*
X39473333Y-172822380D01*
X40378095Y-172822380D02*
X40282857Y-172774761D01*
X40235238Y-172679523D01*
X40235238Y-171822380D01*
X41140000Y-172774761D02*
X41044761Y-172822380D01*
X40854285Y-172822380D01*
X40759047Y-172774761D01*
X40711428Y-172679523D01*
X40711428Y-172298571D01*
X40759047Y-172203333D01*
X40854285Y-172155714D01*
X41044761Y-172155714D01*
X41140000Y-172203333D01*
X41187619Y-172298571D01*
X41187619Y-172393809D01*
X40711428Y-172489047D01*
X42901904Y-172822380D02*
X42330476Y-172822380D01*
X42616190Y-172822380D02*
X42616190Y-171822380D01*
X42520952Y-171965238D01*
X42425714Y-172060476D01*
X42330476Y-172108095D01*
G04 #@! TO.C,R7*
X82495380Y-143168666D02*
X82019190Y-143502000D01*
X82495380Y-143740095D02*
X81495380Y-143740095D01*
X81495380Y-143359142D01*
X81543000Y-143263904D01*
X81590619Y-143216285D01*
X81685857Y-143168666D01*
X81828714Y-143168666D01*
X81923952Y-143216285D01*
X81971571Y-143263904D01*
X82019190Y-143359142D01*
X82019190Y-143740095D01*
X81495380Y-142835333D02*
X81495380Y-142168666D01*
X82495380Y-142597238D01*
X85542380Y-146716666D02*
X85542380Y-147288095D01*
X85542380Y-147002380D02*
X84542380Y-147002380D01*
X84685238Y-147097619D01*
X84780476Y-147192857D01*
X84828095Y-147288095D01*
X84542380Y-146097619D02*
X84542380Y-146002380D01*
X84590000Y-145907142D01*
X84637619Y-145859523D01*
X84732857Y-145811904D01*
X84923333Y-145764285D01*
X85161428Y-145764285D01*
X85351904Y-145811904D01*
X85447142Y-145859523D01*
X85494761Y-145907142D01*
X85542380Y-146002380D01*
X85542380Y-146097619D01*
X85494761Y-146192857D01*
X85447142Y-146240476D01*
X85351904Y-146288095D01*
X85161428Y-146335714D01*
X84923333Y-146335714D01*
X84732857Y-146288095D01*
X84637619Y-146240476D01*
X84590000Y-146192857D01*
X84542380Y-146097619D01*
X84542380Y-145145238D02*
X84542380Y-145050000D01*
X84590000Y-144954761D01*
X84637619Y-144907142D01*
X84732857Y-144859523D01*
X84923333Y-144811904D01*
X85161428Y-144811904D01*
X85351904Y-144859523D01*
X85447142Y-144907142D01*
X85494761Y-144954761D01*
X85542380Y-145050000D01*
X85542380Y-145145238D01*
X85494761Y-145240476D01*
X85447142Y-145288095D01*
X85351904Y-145335714D01*
X85161428Y-145383333D01*
X84923333Y-145383333D01*
X84732857Y-145335714D01*
X84637619Y-145288095D01*
X84590000Y-145240476D01*
X84542380Y-145145238D01*
G04 #@! TO.C,R8*
X90622380Y-152566666D02*
X90146190Y-152900000D01*
X90622380Y-153138095D02*
X89622380Y-153138095D01*
X89622380Y-152757142D01*
X89670000Y-152661904D01*
X89717619Y-152614285D01*
X89812857Y-152566666D01*
X89955714Y-152566666D01*
X90050952Y-152614285D01*
X90098571Y-152661904D01*
X90146190Y-152757142D01*
X90146190Y-153138095D01*
X90050952Y-151995238D02*
X90003333Y-152090476D01*
X89955714Y-152138095D01*
X89860476Y-152185714D01*
X89812857Y-152185714D01*
X89717619Y-152138095D01*
X89670000Y-152090476D01*
X89622380Y-151995238D01*
X89622380Y-151804761D01*
X89670000Y-151709523D01*
X89717619Y-151661904D01*
X89812857Y-151614285D01*
X89860476Y-151614285D01*
X89955714Y-151661904D01*
X90003333Y-151709523D01*
X90050952Y-151804761D01*
X90050952Y-151995238D01*
X90098571Y-152090476D01*
X90146190Y-152138095D01*
X90241428Y-152185714D01*
X90431904Y-152185714D01*
X90527142Y-152138095D01*
X90574761Y-152090476D01*
X90622380Y-151995238D01*
X90622380Y-151804761D01*
X90574761Y-151709523D01*
X90527142Y-151661904D01*
X90431904Y-151614285D01*
X90241428Y-151614285D01*
X90146190Y-151661904D01*
X90098571Y-151709523D01*
X90050952Y-151804761D01*
X90622380Y-146716666D02*
X90622380Y-147288095D01*
X90622380Y-147002380D02*
X89622380Y-147002380D01*
X89765238Y-147097619D01*
X89860476Y-147192857D01*
X89908095Y-147288095D01*
X89622380Y-146097619D02*
X89622380Y-146002380D01*
X89670000Y-145907142D01*
X89717619Y-145859523D01*
X89812857Y-145811904D01*
X90003333Y-145764285D01*
X90241428Y-145764285D01*
X90431904Y-145811904D01*
X90527142Y-145859523D01*
X90574761Y-145907142D01*
X90622380Y-146002380D01*
X90622380Y-146097619D01*
X90574761Y-146192857D01*
X90527142Y-146240476D01*
X90431904Y-146288095D01*
X90241428Y-146335714D01*
X90003333Y-146335714D01*
X89812857Y-146288095D01*
X89717619Y-146240476D01*
X89670000Y-146192857D01*
X89622380Y-146097619D01*
X89622380Y-145145238D02*
X89622380Y-145050000D01*
X89670000Y-144954761D01*
X89717619Y-144907142D01*
X89812857Y-144859523D01*
X90003333Y-144811904D01*
X90241428Y-144811904D01*
X90431904Y-144859523D01*
X90527142Y-144907142D01*
X90574761Y-144954761D01*
X90622380Y-145050000D01*
X90622380Y-145145238D01*
X90574761Y-145240476D01*
X90527142Y-145288095D01*
X90431904Y-145335714D01*
X90241428Y-145383333D01*
X90003333Y-145383333D01*
X89812857Y-145335714D01*
X89717619Y-145288095D01*
X89670000Y-145240476D01*
X89622380Y-145145238D01*
G04 #@! TO.C,R9*
X95702380Y-152566666D02*
X95226190Y-152900000D01*
X95702380Y-153138095D02*
X94702380Y-153138095D01*
X94702380Y-152757142D01*
X94750000Y-152661904D01*
X94797619Y-152614285D01*
X94892857Y-152566666D01*
X95035714Y-152566666D01*
X95130952Y-152614285D01*
X95178571Y-152661904D01*
X95226190Y-152757142D01*
X95226190Y-153138095D01*
X95702380Y-152090476D02*
X95702380Y-151900000D01*
X95654761Y-151804761D01*
X95607142Y-151757142D01*
X95464285Y-151661904D01*
X95273809Y-151614285D01*
X94892857Y-151614285D01*
X94797619Y-151661904D01*
X94750000Y-151709523D01*
X94702380Y-151804761D01*
X94702380Y-151995238D01*
X94750000Y-152090476D01*
X94797619Y-152138095D01*
X94892857Y-152185714D01*
X95130952Y-152185714D01*
X95226190Y-152138095D01*
X95273809Y-152090476D01*
X95321428Y-151995238D01*
X95321428Y-151804761D01*
X95273809Y-151709523D01*
X95226190Y-151661904D01*
X95130952Y-151614285D01*
X95702380Y-146716666D02*
X95702380Y-147288095D01*
X95702380Y-147002380D02*
X94702380Y-147002380D01*
X94845238Y-147097619D01*
X94940476Y-147192857D01*
X94988095Y-147288095D01*
X94702380Y-146097619D02*
X94702380Y-146002380D01*
X94750000Y-145907142D01*
X94797619Y-145859523D01*
X94892857Y-145811904D01*
X95083333Y-145764285D01*
X95321428Y-145764285D01*
X95511904Y-145811904D01*
X95607142Y-145859523D01*
X95654761Y-145907142D01*
X95702380Y-146002380D01*
X95702380Y-146097619D01*
X95654761Y-146192857D01*
X95607142Y-146240476D01*
X95511904Y-146288095D01*
X95321428Y-146335714D01*
X95083333Y-146335714D01*
X94892857Y-146288095D01*
X94797619Y-146240476D01*
X94750000Y-146192857D01*
X94702380Y-146097619D01*
X94702380Y-145145238D02*
X94702380Y-145050000D01*
X94750000Y-144954761D01*
X94797619Y-144907142D01*
X94892857Y-144859523D01*
X95083333Y-144811904D01*
X95321428Y-144811904D01*
X95511904Y-144859523D01*
X95607142Y-144907142D01*
X95654761Y-144954761D01*
X95702380Y-145050000D01*
X95702380Y-145145238D01*
X95654761Y-145240476D01*
X95607142Y-145288095D01*
X95511904Y-145335714D01*
X95321428Y-145383333D01*
X95083333Y-145383333D01*
X94892857Y-145335714D01*
X94797619Y-145288095D01*
X94750000Y-145240476D01*
X94702380Y-145145238D01*
G04 #@! TO.C,R10*
X100782380Y-153042857D02*
X100306190Y-153376190D01*
X100782380Y-153614285D02*
X99782380Y-153614285D01*
X99782380Y-153233333D01*
X99830000Y-153138095D01*
X99877619Y-153090476D01*
X99972857Y-153042857D01*
X100115714Y-153042857D01*
X100210952Y-153090476D01*
X100258571Y-153138095D01*
X100306190Y-153233333D01*
X100306190Y-153614285D01*
X100782380Y-152090476D02*
X100782380Y-152661904D01*
X100782380Y-152376190D02*
X99782380Y-152376190D01*
X99925238Y-152471428D01*
X100020476Y-152566666D01*
X100068095Y-152661904D01*
X99782380Y-151471428D02*
X99782380Y-151376190D01*
X99830000Y-151280952D01*
X99877619Y-151233333D01*
X99972857Y-151185714D01*
X100163333Y-151138095D01*
X100401428Y-151138095D01*
X100591904Y-151185714D01*
X100687142Y-151233333D01*
X100734761Y-151280952D01*
X100782380Y-151376190D01*
X100782380Y-151471428D01*
X100734761Y-151566666D01*
X100687142Y-151614285D01*
X100591904Y-151661904D01*
X100401428Y-151709523D01*
X100163333Y-151709523D01*
X99972857Y-151661904D01*
X99877619Y-151614285D01*
X99830000Y-151566666D01*
X99782380Y-151471428D01*
X100782380Y-146716666D02*
X100782380Y-147288095D01*
X100782380Y-147002380D02*
X99782380Y-147002380D01*
X99925238Y-147097619D01*
X100020476Y-147192857D01*
X100068095Y-147288095D01*
X99782380Y-146097619D02*
X99782380Y-146002380D01*
X99830000Y-145907142D01*
X99877619Y-145859523D01*
X99972857Y-145811904D01*
X100163333Y-145764285D01*
X100401428Y-145764285D01*
X100591904Y-145811904D01*
X100687142Y-145859523D01*
X100734761Y-145907142D01*
X100782380Y-146002380D01*
X100782380Y-146097619D01*
X100734761Y-146192857D01*
X100687142Y-146240476D01*
X100591904Y-146288095D01*
X100401428Y-146335714D01*
X100163333Y-146335714D01*
X99972857Y-146288095D01*
X99877619Y-146240476D01*
X99830000Y-146192857D01*
X99782380Y-146097619D01*
X99782380Y-145145238D02*
X99782380Y-145050000D01*
X99830000Y-144954761D01*
X99877619Y-144907142D01*
X99972857Y-144859523D01*
X100163333Y-144811904D01*
X100401428Y-144811904D01*
X100591904Y-144859523D01*
X100687142Y-144907142D01*
X100734761Y-144954761D01*
X100782380Y-145050000D01*
X100782380Y-145145238D01*
X100734761Y-145240476D01*
X100687142Y-145288095D01*
X100591904Y-145335714D01*
X100401428Y-145383333D01*
X100163333Y-145383333D01*
X99972857Y-145335714D01*
X99877619Y-145288095D01*
X99830000Y-145240476D01*
X99782380Y-145145238D01*
G04 #@! TD*
M02*
