EESchema Schematic File Version 4
LIBS:controller-cache
EELAYER 26 0
EELAYER END
$Descr A4 11693 8268
encoding utf-8
Sheet 1 1
Title ""
Date ""
Rev ""
Comp ""
Comment1 ""
Comment2 ""
Comment3 ""
Comment4 ""
$EndDescr
$Comp
L controller-rescue:Teensy3.2-teensy U3
U 1 1 5C409BA3
P 5050 3000
F 0 "U3" H 5050 4587 60  0000 C CNN
F 1 "Teensy3.2" H 5050 4481 60  0000 C CNN
F 2 "teensy:Teensy30_31_32_LC" H 5050 2200 60  0001 C CNN
F 3 "" H 5050 2200 60  0000 C CNN
	1    5050 3000
	1    0    0    -1  
$EndComp
$Comp
L power:GND #PWR04
U 1 1 5C409BF1
P 4050 1500
F 0 "#PWR04" H 4050 1250 50  0001 C CNN
F 1 "GND" H 4055 1327 50  0000 C CNN
F 2 "" H 4050 1500 50  0001 C CNN
F 3 "" H 4050 1500 50  0001 C CNN
	1    4050 1500
	-1   0    0    1   
$EndComp
Wire Wire Line
	4050 1500 4050 1700
$Comp
L Interface_CAN_LIN:MCP2551-I-P U2
U 1 1 5CA2996C
P 2400 1450
F 0 "U2" H 2400 2028 50  0000 C CNN
F 1 "MCP2551-I-P" H 2400 1937 50  0000 C CNN
F 2 "Package_DIP:DIP-8_W7.62mm" H 2400 950 50  0001 C CIN
F 3 "http://ww1.microchip.com/downloads/en/devicedoc/21667d.pdf" H 2400 1450 50  0001 C CNN
	1    2400 1450
	1    0    0    -1  
$EndComp
Wire Wire Line
	2400 800  2400 1050
$Comp
L power:GND #PWR01
U 1 1 5CA2AD56
P 2400 2000
F 0 "#PWR01" H 2400 1750 50  0001 C CNN
F 1 "GND" H 2405 1827 50  0000 C CNN
F 2 "" H 2400 2000 50  0001 C CNN
F 3 "" H 2400 2000 50  0001 C CNN
	1    2400 2000
	1    0    0    -1  
$EndComp
Wire Wire Line
	2400 1850 2400 2000
Wire Wire Line
	5500 5200 5500 5400
$Comp
L power:+12V #PWR03
U 1 1 5CA315B8
P 2700 5250
F 0 "#PWR03" H 2700 5100 50  0001 C CNN
F 1 "+12V" H 2715 5423 50  0000 C CNN
F 2 "" H 2700 5250 50  0001 C CNN
F 3 "" H 2700 5250 50  0001 C CNN
	1    2700 5250
	1    0    0    -1  
$EndComp
$Comp
L power:+12V #PWR08
U 1 1 5CA31622
P 5500 4850
F 0 "#PWR08" H 5500 4700 50  0001 C CNN
F 1 "+12V" H 5515 5023 50  0000 C CNN
F 2 "" H 5500 4850 50  0001 C CNN
F 3 "" H 5500 4850 50  0001 C CNN
	1    5500 4850
	1    0    0    -1  
$EndComp
Wire Wire Line
	2700 5250 2700 5850
$Comp
L power:GND #PWR06
U 1 1 5CA33EE6
P 4450 6050
F 0 "#PWR06" H 4450 5800 50  0001 C CNN
F 1 "GND" H 4455 5877 50  0000 C CNN
F 2 "" H 4450 6050 50  0001 C CNN
F 3 "" H 4450 6050 50  0001 C CNN
	1    4450 6050
	1    0    0    -1  
$EndComp
Wire Wire Line
	4450 5800 4450 5900
Connection ~ 4450 5800
$Comp
L Device:R_Small R2
U 1 1 5CA363FD
P 3300 5950
F 0 "R2" H 3241 5904 50  0000 R CNN
F 1 "1k" H 3241 5995 50  0000 R CNN
F 2 "Resistor_THT:R_Axial_DIN0411_L9.9mm_D3.6mm_P12.70mm_Horizontal" H 3300 5950 50  0001 C CNN
F 3 "~" H 3300 5950 50  0001 C CNN
	1    3300 5950
	-1   0    0    1   
$EndComp
$Comp
L Device:R_Small R3
U 1 1 5CA3646B
P 3950 5950
F 0 "R3" H 3891 5904 50  0000 R CNN
F 1 "1k" H 3891 5995 50  0000 R CNN
F 2 "Resistor_THT:R_Axial_DIN0411_L9.9mm_D3.6mm_P12.70mm_Horizontal" H 3950 5950 50  0001 C CNN
F 3 "~" H 3950 5950 50  0001 C CNN
	1    3950 5950
	-1   0    0    1   
$EndComp
$Comp
L Device:R_Small R4
U 1 1 5CA36D20
P 4600 5950
F 0 "R4" H 4541 5904 50  0000 R CNN
F 1 "1k" H 4541 5995 50  0000 R CNN
F 2 "Resistor_THT:R_Axial_DIN0411_L9.9mm_D3.6mm_P12.70mm_Horizontal" H 4600 5950 50  0001 C CNN
F 3 "~" H 4600 5950 50  0001 C CNN
	1    4600 5950
	-1   0    0    1   
$EndComp
$Comp
L Device:R_Small R5
U 1 1 5CA37560
P 5200 5950
F 0 "R5" H 5141 5904 50  0000 R CNN
F 1 "1k" H 5141 5995 50  0000 R CNN
F 2 "Resistor_THT:R_Axial_DIN0411_L9.9mm_D3.6mm_P12.70mm_Horizontal" H 5200 5950 50  0001 C CNN
F 3 "~" H 5200 5950 50  0001 C CNN
	1    5200 5950
	-1   0    0    1   
$EndComp
Wire Wire Line
	3300 6050 3950 6050
Wire Wire Line
	3950 6050 4250 6050
Wire Wire Line
	4250 6050 4250 5900
Wire Wire Line
	4250 5900 4450 5900
Connection ~ 3950 6050
Connection ~ 4450 5900
Wire Wire Line
	4450 5900 4450 6050
Wire Wire Line
	5200 6050 4600 6050
Wire Wire Line
	4600 6050 4500 6050
Wire Wire Line
	4500 6050 4500 5900
Wire Wire Line
	4500 5900 4450 5900
Connection ~ 4600 6050
Wire Wire Line
	5500 4850 5500 5100
$Comp
L Regulator_Linear:L7805 U4
U 1 1 5CA76EB8
P 8900 1350
F 0 "U4" H 8900 1592 50  0000 C CNN
F 1 "L7805" H 8900 1501 50  0000 C CNN
F 2 "Package_TO_SOT_THT:TO-220-3_Vertical" H 8925 1200 50  0001 L CIN
F 3 "http://www.st.com/content/ccc/resource/technical/document/datasheet/41/4f/b3/b0/12/d4/47/88/CD00000444.pdf/files/CD00000444.pdf/jcr:content/translations/en.CD00000444.pdf" H 8900 1300 50  0001 C CNN
	1    8900 1350
	1    0    0    -1  
$EndComp
Wire Wire Line
	8550 1050 8550 1350
Wire Wire Line
	8550 1350 8600 1350
$Comp
L power:GND #PWR010
U 1 1 5CA77AD6
P 8900 1800
F 0 "#PWR010" H 8900 1550 50  0001 C CNN
F 1 "GND" H 8905 1627 50  0000 C CNN
F 2 "" H 8900 1800 50  0001 C CNN
F 3 "" H 8900 1800 50  0001 C CNN
	1    8900 1800
	1    0    0    -1  
$EndComp
Wire Wire Line
	8900 1650 8900 1750
Text GLabel 9600 1350 2    50   Input ~ 0
5v
Wire Wire Line
	9200 1350 9400 1350
$Comp
L Device:CP C2
U 1 1 5CA7A03D
P 9400 1600
F 0 "C2" H 9518 1646 50  0000 L CNN
F 1 ".1uF" H 9518 1555 50  0000 L CNN
F 2 "Capacitor_THT:C_Radial_D4.0mm_H7.0mm_P1.50mm" H 9438 1450 50  0001 C CNN
F 3 "~" H 9400 1600 50  0001 C CNN
	1    9400 1600
	1    0    0    -1  
$EndComp
$Comp
L Device:CP C1
U 1 1 5CA7A19D
P 8400 1600
F 0 "C1" H 8518 1646 50  0000 L CNN
F 1 ".33uF" H 8518 1555 50  0000 L CNN
F 2 "Capacitor_THT:C_Radial_D4.0mm_H7.0mm_P1.50mm" H 8438 1450 50  0001 C CNN
F 3 "~" H 8400 1600 50  0001 C CNN
	1    8400 1600
	1    0    0    -1  
$EndComp
Wire Wire Line
	8550 1350 8400 1450
Connection ~ 8550 1350
Wire Wire Line
	8400 1750 8900 1750
Connection ~ 8900 1750
Wire Wire Line
	8900 1750 8900 1800
Wire Wire Line
	9400 1350 9400 1450
Connection ~ 9400 1350
Wire Wire Line
	9400 1350 9600 1350
Wire Wire Line
	9400 1750 8900 1750
Text GLabel 6700 3800 2    50   Input ~ 0
5v
Wire Wire Line
	6050 3800 6700 3800
Text GLabel 2400 800  1    50   Input ~ 0
5v
Wire Wire Line
	1900 1250 1650 1250
Wire Wire Line
	1650 1250 1650 2200
Wire Wire Line
	1900 1350 1700 1350
Wire Wire Line
	1700 1350 1700 2100
$Comp
L Device:R R1
U 1 1 5CA8845C
P 3100 1450
F 0 "R1" H 3170 1496 50  0000 L CNN
F 1 "120" H 3170 1405 50  0000 L CNN
F 2 "Resistor_THT:R_Axial_DIN0411_L9.9mm_D3.6mm_P12.70mm_Horizontal" V 3030 1450 50  0001 C CNN
F 3 "~" H 3100 1450 50  0001 C CNN
	1    3100 1450
	1    0    0    -1  
$EndComp
Wire Wire Line
	2900 1350 2900 1300
Wire Wire Line
	2900 1300 3100 1300
Wire Wire Line
	2900 1550 2900 1600
Wire Wire Line
	2900 1600 3100 1600
$Comp
L Connector:Conn_01x02_Male J1
U 1 1 5CA8AE21
P 3650 1500
F 0 "J1" H 3623 1380 50  0000 R CNN
F 1 "Conn_01x02_Male" H 3623 1471 50  0000 R CNN
F 2 "Connector_PinHeader_2.54mm:PinHeader_1x02_P2.54mm_Vertical" H 3650 1500 50  0001 C CNN
F 3 "~" H 3650 1500 50  0001 C CNN
	1    3650 1500
	-1   0    0    1   
$EndComp
Wire Wire Line
	3100 1300 3450 1300
Wire Wire Line
	3450 1300 3450 1400
Connection ~ 3100 1300
Wire Wire Line
	3100 1600 3450 1600
Wire Wire Line
	3450 1600 3450 1500
Connection ~ 3100 1600
$Comp
L power:+12V #PWR09
U 1 1 5CA90A69
P 8550 1050
F 0 "#PWR09" H 8550 900 50  0001 C CNN
F 1 "+12V" H 8565 1223 50  0000 C CNN
F 2 "" H 8550 1050 50  0001 C CNN
F 3 "" H 8550 1050 50  0001 C CNN
	1    8550 1050
	1    0    0    -1  
$EndComp
$Comp
L custom:AF-LIS3DH U1
U 1 1 5CA9138C
P 2150 3650
F 0 "U1" H 2206 3725 50  0000 C CNN
F 1 "AF-LIS3DH" H 2206 3634 50  0000 C CNN
F 2 "Connector_PinHeader_2.54mm:PinHeader_1x08_P2.54mm_Vertical" H 2150 3650 50  0001 C CNN
F 3 "" H 2150 3650 50  0001 C CNN
	1    2150 3650
	1    0    0    -1  
$EndComp
Wire Wire Line
	4050 4100 3650 4100
Wire Wire Line
	3650 4100 3650 3800
Wire Wire Line
	3650 3800 2700 3800
Wire Wire Line
	2600 3900 2750 3900
Wire Wire Line
	3600 3900 3600 4200
Wire Wire Line
	3600 4200 4050 4200
$Comp
L power:GND #PWR02
U 1 1 5CA93E80
P 2700 4400
F 0 "#PWR02" H 2700 4150 50  0001 C CNN
F 1 "GND" H 2705 4227 50  0000 C CNN
F 2 "" H 2700 4400 50  0001 C CNN
F 3 "" H 2700 4400 50  0001 C CNN
	1    2700 4400
	1    0    0    -1  
$EndComp
Wire Wire Line
	2600 4000 2700 4000
Wire Wire Line
	2700 4000 2700 4400
Wire Wire Line
	4050 3200 2800 3200
Wire Wire Line
	2800 3200 2800 4200
Wire Wire Line
	2800 4200 2600 4200
$Comp
L Connector:Conn_01x02_Male J6
U 1 1 5CA98C41
P 6950 2100
F 0 "J6" V 7103 1912 50  0000 R CNN
F 1 "12v" V 7012 1912 50  0000 R CNN
F 2 "Connector_PinHeader_2.54mm:PinHeader_1x02_P2.54mm_Vertical" H 6950 2100 50  0001 C CNN
F 3 "~" H 6950 2100 50  0001 C CNN
	1    6950 2100
	0    -1   -1   0   
$EndComp
$Comp
L power:+12V #PWR011
U 1 1 5CA98DD0
P 6950 1900
F 0 "#PWR011" H 6950 1750 50  0001 C CNN
F 1 "+12V" H 6965 2073 50  0000 C CNN
F 2 "" H 6950 1900 50  0001 C CNN
F 3 "" H 6950 1900 50  0001 C CNN
	1    6950 1900
	1    0    0    -1  
$EndComp
$Comp
L power:GND #PWR012
U 1 1 5CA98E05
P 7050 1900
F 0 "#PWR012" H 7050 1650 50  0001 C CNN
F 1 "GND" H 7055 1727 50  0000 C CNN
F 2 "" H 7050 1900 50  0001 C CNN
F 3 "" H 7050 1900 50  0001 C CNN
	1    7050 1900
	-1   0    0    1   
$EndComp
$Comp
L Connector:Conn_01x02_Male J7
U 1 1 5CA98EB8
P 6950 2650
F 0 "J7" V 7103 2463 50  0000 R CNN
F 1 "regulated 5v" V 7012 2463 50  0000 R CNN
F 2 "Connector_PinHeader_2.54mm:PinHeader_1x02_P2.54mm_Vertical" H 6950 2650 50  0001 C CNN
F 3 "~" H 6950 2650 50  0001 C CNN
	1    6950 2650
	0    -1   -1   0   
$EndComp
Text GLabel 6950 2450 1    50   Input ~ 0
5v
$Comp
L power:GND #PWR0101
U 1 1 5CA9A104
P 7050 2450
F 0 "#PWR0101" H 7050 2200 50  0001 C CNN
F 1 "GND" H 7055 2277 50  0000 C CNN
F 2 "" H 7050 2450 50  0001 C CNN
F 3 "" H 7050 2450 50  0001 C CNN
	1    7050 2450
	-1   0    0    1   
$EndComp
$Comp
L Device:C C3
U 1 1 5CA9C096
P 8050 2400
F 0 "C3" H 8165 2446 50  0000 L CNN
F 1 "470uF" H 8165 2355 50  0000 L CNN
F 2 "Capacitor_THT:C_Radial_D8.0mm_H11.5mm_P3.50mm" H 8088 2250 50  0001 C CNN
F 3 "~" H 8050 2400 50  0001 C CNN
	1    8050 2400
	1    0    0    -1  
$EndComp
$Comp
L Device:C C4
U 1 1 5CA9C0FE
P 8500 2400
F 0 "C4" H 8615 2446 50  0000 L CNN
F 1 ".1uF" H 8615 2355 50  0000 L CNN
F 2 "Capacitor_THT:C_Disc_D4.7mm_W2.5mm_P5.00mm" H 8538 2250 50  0001 C CNN
F 3 "~" H 8500 2400 50  0001 C CNN
	1    8500 2400
	1    0    0    -1  
$EndComp
$Comp
L Device:C C6
U 1 1 5CA9C14A
P 9350 2400
F 0 "C6" H 9465 2446 50  0000 L CNN
F 1 "470uF" H 9465 2355 50  0000 L CNN
F 2 "Capacitor_THT:C_Radial_D8.0mm_H11.5mm_P3.50mm" H 9388 2250 50  0001 C CNN
F 3 "~" H 9350 2400 50  0001 C CNN
	1    9350 2400
	1    0    0    -1  
$EndComp
$Comp
L Device:C C7
U 1 1 5CA9C196
P 9800 2400
F 0 "C7" H 9915 2446 50  0000 L CNN
F 1 ".1uF" H 9915 2355 50  0000 L CNN
F 2 "Capacitor_THT:C_Disc_D5.0mm_W2.5mm_P5.00mm" H 9838 2250 50  0001 C CNN
F 3 "~" H 9800 2400 50  0001 C CNN
	1    9800 2400
	1    0    0    -1  
$EndComp
$Comp
L Device:C C8
U 1 1 5CA9C558
P 10200 2400
F 0 "C8" H 10315 2446 50  0000 L CNN
F 1 "10uF" H 10315 2355 50  0000 L CNN
F 2 "Capacitor_THT:C_Disc_D5.0mm_W2.5mm_P5.00mm" H 10238 2250 50  0001 C CNN
F 3 "~" H 10200 2400 50  0001 C CNN
	1    10200 2400
	1    0    0    -1  
$EndComp
$Comp
L Device:C C5
U 1 1 5CA9E07F
P 8950 2400
F 0 "C5" H 9065 2446 50  0000 L CNN
F 1 "10uF" H 9065 2355 50  0000 L CNN
F 2 "Capacitor_THT:C_Disc_D5.0mm_W2.5mm_P5.00mm" H 8988 2250 50  0001 C CNN
F 3 "~" H 8950 2400 50  0001 C CNN
	1    8950 2400
	1    0    0    -1  
$EndComp
$Comp
L power:+12V #PWR0102
U 1 1 5CA9E13E
P 8500 2050
F 0 "#PWR0102" H 8500 1900 50  0001 C CNN
F 1 "+12V" H 8515 2223 50  0000 C CNN
F 2 "" H 8500 2050 50  0001 C CNN
F 3 "" H 8500 2050 50  0001 C CNN
	1    8500 2050
	1    0    0    -1  
$EndComp
Wire Wire Line
	8500 2050 8500 2250
Wire Wire Line
	8500 2250 8050 2250
Connection ~ 8500 2250
Wire Wire Line
	8500 2250 8950 2250
$Comp
L power:GND #PWR0103
U 1 1 5CAA1716
P 8500 2850
F 0 "#PWR0103" H 8500 2600 50  0001 C CNN
F 1 "GND" H 8505 2677 50  0000 C CNN
F 2 "" H 8500 2850 50  0001 C CNN
F 3 "" H 8500 2850 50  0001 C CNN
	1    8500 2850
	1    0    0    -1  
$EndComp
Wire Wire Line
	8050 2550 8050 2850
Wire Wire Line
	8050 2850 8500 2850
Wire Wire Line
	8500 2550 8500 2850
Connection ~ 8500 2850
Wire Wire Line
	8950 2550 8950 2850
Wire Wire Line
	8950 2850 8500 2850
$Comp
L power:GND #PWR0104
U 1 1 5CAA6DEE
P 9800 2850
F 0 "#PWR0104" H 9800 2600 50  0001 C CNN
F 1 "GND" H 9805 2677 50  0000 C CNN
F 2 "" H 9800 2850 50  0001 C CNN
F 3 "" H 9800 2850 50  0001 C CNN
	1    9800 2850
	1    0    0    -1  
$EndComp
Text GLabel 9800 2000 1    50   Input ~ 0
5v
Wire Wire Line
	9800 2000 9800 2250
Wire Wire Line
	9800 2250 9350 2250
Connection ~ 9800 2250
Wire Wire Line
	9800 2250 10200 2250
Wire Wire Line
	9800 2550 9800 2850
Wire Wire Line
	9350 2550 9800 2550
Connection ~ 9800 2550
Wire Wire Line
	9800 2550 10200 2550
$Comp
L Connector:Conn_01x02_Male J5
U 1 1 5CA2FD52
P 5700 5200
F 0 "J5" H 5673 5080 50  0000 R CNN
F 1 "PWM4" H 5673 5171 50  0000 R CNN
F 2 "Connector_PinHeader_2.54mm:PinHeader_1x02_P2.54mm_Vertical" H 5700 5200 50  0001 C CNN
F 3 "~" H 5700 5200 50  0001 C CNN
	1    5700 5200
	-1   0    0    1   
$EndComp
$Comp
L Connector:Conn_01x04_Male J2
U 1 1 5CBDFFA8
P 2800 6050
F 0 "J2" V 2953 5763 50  0000 R CNN
F 1 "Conn_01x04_Male" V 2700 6050 50  0000 R CNN
F 2 "Connector_PinHeader_2.54mm:PinHeader_1x04_P2.54mm_Vertical" H 2800 6050 50  0001 C CNN
F 3 "~" H 2800 6050 50  0001 C CNN
	1    2800 6050
	0    -1   -1   0   
$EndComp
Wire Wire Line
	2800 5850 2800 5150
Wire Wire Line
	2800 5150 4900 5150
Wire Wire Line
	4900 5150 4900 5400
Wire Wire Line
	2900 5850 2900 5200
Wire Wire Line
	2900 5200 4250 5200
Wire Wire Line
	4250 5200 4250 5400
Wire Wire Line
	3000 5850 3000 5250
Wire Wire Line
	3000 5250 3600 5250
Wire Wire Line
	3600 5250 3600 5400
$Comp
L Driver_LED:PCA9685PW U5
U 1 1 5CBEFBC8
P 1400 5300
F 0 "U5" H 1400 6478 50  0000 C CNN
F 1 "PCA9685PW" H 1400 6387 50  0000 C CNN
F 2 "Package_SO:TSSOP-28_4.4x9.7mm_P0.65mm" H 1425 4325 50  0001 L CNN
F 3 "http://www.nxp.com/documents/data_sheet/PCA9685.pdf" H 1000 6000 50  0001 C CNN
	1    1400 5300
	1    0    0    -1  
$EndComp
Wire Wire Line
	1700 2100 4050 2100
Wire Wire Line
	1650 2200 4050 2200
Text GLabel 1400 4000 1    50   Input ~ 0
5v
Wire Wire Line
	1400 4000 1400 4300
$Comp
L power:GND #PWR0105
U 1 1 5CC028F3
P 1400 6550
F 0 "#PWR0105" H 1400 6300 50  0001 C CNN
F 1 "GND" H 1405 6377 50  0000 C CNN
F 2 "" H 1400 6550 50  0001 C CNN
F 3 "" H 1400 6550 50  0001 C CNN
	1    1400 6550
	1    0    0    -1  
$EndComp
Wire Wire Line
	1400 6400 1400 6550
Wire Wire Line
	700  5500 600  5500
Wire Wire Line
	600  5500 600  5600
$Comp
L Device:R R6
U 1 1 5CC07BEA
P 1150 6400
F 0 "R6" V 943 6400 50  0000 C CNN
F 1 "1k" V 1034 6400 50  0000 C CNN
F 2 "Resistor_THT:R_Axial_DIN0411_L9.9mm_D3.6mm_P12.70mm_Horizontal" V 1080 6400 50  0001 C CNN
F 3 "~" H 1150 6400 50  0001 C CNN
	1    1150 6400
	0    1    1    0   
$EndComp
Wire Wire Line
	600  6400 1000 6400
Wire Wire Line
	1300 6400 1400 6400
Connection ~ 1400 6400
Wire Wire Line
	600  5600 700  5600
Connection ~ 600  5600
Wire Wire Line
	600  5600 600  5700
Wire Wire Line
	600  5700 700  5700
Connection ~ 600  5700
Wire Wire Line
	600  5700 600  5800
Wire Wire Line
	600  5800 700  5800
Connection ~ 600  5800
Wire Wire Line
	600  5800 600  5900
Wire Wire Line
	600  5900 700  5900
Connection ~ 600  5900
Wire Wire Line
	600  5900 600  6000
Wire Wire Line
	600  6000 700  6000
Connection ~ 600  6000
Wire Wire Line
	600  6000 600  6400
Wire Wire Line
	650  4700 700  4700
Connection ~ 2700 3800
Wire Wire Line
	2700 3800 2600 3800
Wire Wire Line
	550  4600 700  4600
Connection ~ 2750 3900
Wire Wire Line
	2750 3900 3600 3900
Wire Wire Line
	700  4900 600  4900
Wire Wire Line
	600  4900 600  5500
Connection ~ 600  5500
$Comp
L power:GND #PWR0106
U 1 1 5CC59D04
P 750 5050
F 0 "#PWR0106" H 750 4800 50  0001 C CNN
F 1 "GND" H 755 4877 50  0000 C CNN
F 2 "" H 750 5050 50  0001 C CNN
F 3 "" H 750 5050 50  0001 C CNN
	1    750  5050
	1    0    0    -1  
$EndComp
Wire Wire Line
	700  4800 650  4800
Wire Wire Line
	650  4800 650  5050
Wire Wire Line
	650  5050 750  5050
$Comp
L Device:R R10
U 1 1 5CC0CED5
P 4850 4600
F 0 "R10" V 4643 4600 50  0000 C CNN
F 1 "100" V 4734 4600 50  0000 C CNN
F 2 "Resistor_THT:R_Axial_DIN0411_L9.9mm_D3.6mm_P12.70mm_Horizontal" V 4780 4600 50  0001 C CNN
F 3 "~" H 4850 4600 50  0001 C CNN
	1    4850 4600
	0    1    1    0   
$EndComp
$Comp
L Device:R R9
U 1 1 5CC111F5
P 4300 4700
F 0 "R9" V 4093 4700 50  0000 C CNN
F 1 "100" V 4184 4700 50  0000 C CNN
F 2 "Resistor_THT:R_Axial_DIN0411_L9.9mm_D3.6mm_P12.70mm_Horizontal" V 4230 4700 50  0001 C CNN
F 3 "~" H 4300 4700 50  0001 C CNN
	1    4300 4700
	0    1    1    0   
$EndComp
$Comp
L Device:R R8
U 1 1 5CC11253
P 3700 4800
F 0 "R8" V 3493 4800 50  0000 C CNN
F 1 "100" V 3584 4800 50  0000 C CNN
F 2 "Resistor_THT:R_Axial_DIN0411_L9.9mm_D3.6mm_P12.70mm_Horizontal" V 3630 4800 50  0001 C CNN
F 3 "~" H 3700 4800 50  0001 C CNN
	1    3700 4800
	0    1    1    0   
$EndComp
$Comp
L Device:R R7
U 1 1 5CC112A9
P 3000 4900
F 0 "R7" V 2793 4900 50  0000 C CNN
F 1 "100" V 2884 4900 50  0000 C CNN
F 2 "Resistor_THT:R_Axial_DIN0411_L9.9mm_D3.6mm_P12.70mm_Horizontal" V 2930 4900 50  0001 C CNN
F 3 "~" H 3000 4900 50  0001 C CNN
	1    3000 4900
	0    1    1    0   
$EndComp
Wire Wire Line
	2100 4600 4700 4600
Wire Wire Line
	5000 4600 5200 4600
Wire Wire Line
	4450 4700 4600 4700
Wire Wire Line
	4150 4700 2100 4700
Wire Wire Line
	2100 4800 3550 4800
Wire Wire Line
	3850 4800 3950 4800
Wire Wire Line
	3150 4900 3300 4900
Wire Wire Line
	2850 4900 2100 4900
Wire Wire Line
	2700 3250 650  3250
Wire Wire Line
	2700 3250 2700 3800
Wire Wire Line
	650  3250 650  4700
Wire Wire Line
	2750 3300 550  3300
Wire Wire Line
	2750 3300 2750 3900
Wire Wire Line
	550  3300 550  4600
Wire Wire Line
	4050 2000 3050 2000
Wire Wire Line
	3050 2000 3050 3500
Wire Wire Line
	3050 3500 2600 3500
Wire Wire Line
	3300 4900 3300 5600
Wire Wire Line
	3600 5800 4250 5800
Wire Wire Line
	3950 4800 3950 5600
Wire Wire Line
	4450 5800 4900 5800
Wire Wire Line
	4600 4700 4600 5600
Wire Wire Line
	5200 4600 5200 5600
$Comp
L custom:IRLD024 FET1
U 1 1 5CEEABF9
P 3500 5600
F 0 "FET1" H 3741 5646 50  0000 L CNN
F 1 "IRLD024" H 3741 5555 50  0000 L CNN
F 2 "Package_DIP:DIP-4_W7.62mm" H 4000 5900 50  0001 L BNN
F 3 "Vishay" H 3900 5450 50  0001 L BNN
	1    3500 5600
	1    0    0    -1  
$EndComp
Connection ~ 3300 5600
Wire Wire Line
	3300 5600 3300 5850
$Comp
L custom:IRLD024 FET2
U 1 1 5CEEAC69
P 4150 5600
F 0 "FET2" H 4391 5646 50  0000 L CNN
F 1 "IRLD024" H 4391 5555 50  0000 L CNN
F 2 "Package_DIP:DIP-4_W7.62mm" H 4650 5900 50  0001 L BNN
F 3 "Vishay" H 4550 5450 50  0001 L BNN
	1    4150 5600
	1    0    0    -1  
$EndComp
Connection ~ 3950 5600
Wire Wire Line
	3950 5600 3950 5850
Connection ~ 4250 5800
Wire Wire Line
	4250 5800 4450 5800
$Comp
L custom:IRLD024 FET3
U 1 1 5CEEACCD
P 4800 5600
F 0 "FET3" H 5041 5646 50  0000 L CNN
F 1 "IRLD024" H 5041 5555 50  0000 L CNN
F 2 "Package_DIP:DIP-4_W7.62mm" H 5300 5900 50  0001 L BNN
F 3 "Vishay" H 5200 5450 50  0001 L BNN
	1    4800 5600
	1    0    0    -1  
$EndComp
Connection ~ 4600 5600
Wire Wire Line
	4600 5600 4600 5850
Connection ~ 4900 5800
Wire Wire Line
	4900 5800 5500 5800
$Comp
L custom:IRLD024 FET4
U 1 1 5CEEAD2B
P 5400 5600
F 0 "FET4" H 5641 5646 50  0000 L CNN
F 1 "IRLD024" H 5641 5555 50  0000 L CNN
F 2 "Package_DIP:DIP-4_W7.62mm" H 5900 5900 50  0001 L BNN
F 3 "Vishay" H 5800 5450 50  0001 L BNN
	1    5400 5600
	1    0    0    -1  
$EndComp
Connection ~ 5200 5600
Wire Wire Line
	5200 5600 5200 5850
Wire Wire Line
	3700 5400 3600 5400
Connection ~ 3600 5400
Wire Wire Line
	4250 5400 4350 5400
Connection ~ 4250 5400
Wire Wire Line
	4900 5400 5000 5400
Connection ~ 4900 5400
Wire Wire Line
	5500 5400 5600 5400
Connection ~ 5500 5400
$EndSCHEMATC
