EESchema Schematic File Version 4
LIBS:amplifier tht-cache
EELAYER 26 0
EELAYER END
$Descr A4 11693 8268
encoding utf-8
Sheet 1 1
Title ""
Date ""
Rev ""
Comp ""
Comment1 ""
Comment2 ""
Comment3 ""
Comment4 ""
$EndDescr
$Comp
L amplifier-tht-rescue:TPA3125D2-custom U1
U 1 1 5C06E4BD
P 5650 3750
F 0 "U1" H 5650 4625 50  0000 C CNN
F 1 "TPA3125D2" H 5650 4534 50  0000 C CNN
F 2 "Housings_DIP:DIP-20_W7.62mm" H 5650 3750 50  0001 C CNN
F 3 "" H 5650 3750 50  0001 C CNN
	1    5650 3750
	1    0    0    -1  
$EndComp
$Comp
L Device:C C1
U 1 1 5C06E567
P 4000 3350
F 0 "C1" V 3748 3350 50  0000 C CNN
F 1 "1.0uF" V 3839 3350 50  0000 C CNN
F 2 "Capacitors_SMD:C_1206_HandSoldering" H 4038 3200 50  0001 C CNN
F 3 "~" H 4000 3350 50  0001 C CNN
	1    4000 3350
	0    1    1    0   
$EndComp
$Comp
L Device:C C2
U 1 1 5C06E5C4
P 4000 3750
F 0 "C2" V 3748 3750 50  0000 C CNN
F 1 "1.0uF" V 3839 3750 50  0000 C CNN
F 2 "Capacitors_SMD:C_1206_HandSoldering" H 4038 3600 50  0001 C CNN
F 3 "~" H 4000 3750 50  0001 C CNN
	1    4000 3750
	0    1    1    0   
$EndComp
Wire Wire Line
	4150 3350 4350 3350
Wire Wire Line
	4350 3350 4350 3400
Wire Wire Line
	4350 3400 5150 3400
Wire Wire Line
	4150 3750 4350 3750
Wire Wire Line
	4350 3750 4350 3500
Wire Wire Line
	4350 3500 5150 3500
$Comp
L power:VCC #PWR01
U 1 1 5C06E83D
P 5150 2650
F 0 "#PWR01" H 5150 2500 50  0001 C CNN
F 1 "VCC" H 5167 2823 50  0000 C CNN
F 2 "" H 5150 2650 50  0001 C CNN
F 3 "" H 5150 2650 50  0001 C CNN
	1    5150 2650
	1    0    0    -1  
$EndComp
$Comp
L power:GND #PWR02
U 1 1 5C06E8AB
P 5650 4500
F 0 "#PWR02" H 5650 4250 50  0001 C CNN
F 1 "GND" H 5655 4327 50  0000 C CNN
F 2 "" H 5650 4500 50  0001 C CNN
F 3 "" H 5650 4500 50  0001 C CNN
	1    5650 4500
	1    0    0    -1  
$EndComp
Wire Wire Line
	5150 2650 5150 2700
Wire Wire Line
	5150 3100 4900 3100
Wire Wire Line
	4900 3100 4900 4000
Wire Wire Line
	4900 4000 5000 4000
Connection ~ 5150 3100
Wire Wire Line
	6150 3500 6300 3500
Wire Wire Line
	6300 3500 6300 3400
Wire Wire Line
	6300 3400 6150 3400
Wire Wire Line
	6300 3400 6300 2700
Wire Wire Line
	6300 2700 5150 2700
Connection ~ 6300 3400
Connection ~ 5150 2700
Wire Wire Line
	5150 2700 5150 2800
$Comp
L Device:C C7
U 1 1 5C06EBF6
P 5850 2800
F 0 "C7" V 5598 2800 50  0000 C CNN
F 1 ".1uF" V 5689 2800 50  0000 C CNN
F 2 "Capacitors_SMD:C_1206_HandSoldering" H 5888 2650 50  0001 C CNN
F 3 "~" H 5850 2800 50  0001 C CNN
	1    5850 2800
	0    1    1    0   
$EndComp
Wire Wire Line
	5150 2800 5700 2800
Connection ~ 5150 2800
Wire Wire Line
	5150 2800 5150 3100
Wire Wire Line
	6000 2800 6150 2800
Wire Wire Line
	6150 2800 6150 3100
Wire Wire Line
	6150 3100 6250 3100
Wire Wire Line
	6250 3100 6250 4000
Wire Wire Line
	6250 4000 6150 4000
Connection ~ 6150 3100
Wire Wire Line
	6250 4000 6250 4150
Connection ~ 6250 4000
$Comp
L Device:CP C5
U 1 1 5C06F4C7
P 5200 4300
F 0 "C5" H 5318 4346 50  0000 L CNN
F 1 "470uF" H 5318 4255 50  0000 L CNN
F 2 "Capacitors_SMD:CP_Elec_10x10" H 5238 4150 50  0001 C CNN
F 3 "~" H 5200 4300 50  0001 C CNN
	1    5200 4300
	1    0    0    -1  
$EndComp
$Comp
L Device:CP C6
U 1 1 5C06F503
P 5550 4300
F 0 "C6" H 5668 4346 50  0000 L CNN
F 1 "470uF" H 5668 4255 50  0000 L CNN
F 2 "Capacitors_SMD:CP_Elec_10x10" H 5588 4150 50  0001 C CNN
F 3 "~" H 5550 4300 50  0001 C CNN
	1    5550 4300
	1    0    0    -1  
$EndComp
Wire Wire Line
	5650 4500 5550 4500
Wire Wire Line
	5200 4500 5200 4450
Connection ~ 5650 4500
Wire Wire Line
	5550 4450 5550 4500
Connection ~ 5550 4500
Wire Wire Line
	5550 4500 5200 4500
$Comp
L Device:C C4
U 1 1 5C06FB32
P 4800 4300
F 0 "C4" H 4685 4254 50  0000 R CNN
F 1 "1.0uF" H 4685 4345 50  0000 R CNN
F 2 "Capacitors_SMD:C_1206_HandSoldering" H 4838 4150 50  0001 C CNN
F 3 "~" H 4800 4300 50  0001 C CNN
	1    4800 4300
	-1   0    0    1   
$EndComp
Wire Wire Line
	4800 4450 4850 4500
Wire Wire Line
	4850 4500 5200 4500
Connection ~ 5200 4500
Wire Wire Line
	5150 3900 4850 3900
Wire Wire Line
	4850 3900 4800 4150
Wire Wire Line
	5000 4000 5000 4150
Wire Wire Line
	5000 4150 5200 4150
Connection ~ 5000 4000
Wire Wire Line
	5000 4000 5150 4000
Wire Wire Line
	5550 4150 5200 4150
Connection ~ 5200 4150
$Comp
L Device:C C8
U 1 1 5C070F9A
P 5850 4150
F 0 "C8" V 5700 4000 50  0000 C CNN
F 1 "0.1uF" V 5800 4000 50  0000 C CNN
F 2 "Capacitors_SMD:C_1206_HandSoldering" H 5888 4000 50  0001 C CNN
F 3 "~" H 5850 4150 50  0001 C CNN
	1    5850 4150
	0    -1   -1   0   
$EndComp
Wire Wire Line
	5550 4150 5700 4150
Connection ~ 5550 4150
Wire Wire Line
	6000 4150 6250 4150
Connection ~ 6250 4150
Wire Wire Line
	6250 4150 6250 4500
$Comp
L Device:C C3
U 1 1 5C071D0D
P 4550 3750
F 0 "C3" H 4435 3704 50  0000 R CNN
F 1 "1.0uF" H 4435 3795 50  0000 R CNN
F 2 "Capacitors_SMD:C_1206_HandSoldering" H 4588 3600 50  0001 C CNN
F 3 "~" H 4550 3750 50  0001 C CNN
	1    4550 3750
	-1   0    0    1   
$EndComp
Wire Wire Line
	5150 3600 4550 3600
Wire Wire Line
	4550 3900 4550 4000
Wire Wire Line
	4550 4500 4850 4500
Connection ~ 4850 4500
Wire Wire Line
	5150 3700 5100 3700
Wire Wire Line
	5100 3700 5100 3800
Wire Wire Line
	5100 3800 5150 3800
Wire Wire Line
	5100 3800 4650 3800
Wire Wire Line
	4650 3800 4650 4000
Wire Wire Line
	4650 4000 4550 4000
Connection ~ 5100 3800
Connection ~ 4550 4000
Wire Wire Line
	4550 4000 4550 4500
$Comp
L Device:C C10
U 1 1 5C0742F7
P 6800 3300
F 0 "C10" V 6548 3300 50  0000 C CNN
F 1 ".22uF" V 6639 3300 50  0000 C CNN
F 2 "Capacitors_SMD:C_1206_HandSoldering" H 6838 3150 50  0001 C CNN
F 3 "~" H 6800 3300 50  0001 C CNN
	1    6800 3300
	0    1    1    0   
$EndComp
Wire Wire Line
	6150 3300 6650 3300
$Comp
L Device:C C11
U 1 1 5C075024
P 6800 3800
F 0 "C11" V 6548 3800 50  0000 C CNN
F 1 ".22uF" V 6639 3800 50  0000 C CNN
F 2 "Capacitors_SMD:C_1206_HandSoldering" H 6838 3650 50  0001 C CNN
F 3 "~" H 6800 3800 50  0001 C CNN
	1    6800 3800
	0    1    1    0   
$EndComp
Wire Wire Line
	6150 3800 6650 3800
Wire Wire Line
	6950 3800 7400 3800
Wire Wire Line
	7400 3800 7400 3900
Wire Wire Line
	6950 3300 7400 3300
$Comp
L Device:Speaker LS1
U 1 1 5C07D298
P 9050 3500
F 0 "LS1" H 9220 3496 50  0000 L CNN
F 1 "Speaker" H 9220 3405 50  0000 L CNN
F 2 "Connectors_Samtec:SL-102-X-XX_1x02" H 9050 3300 50  0001 C CNN
F 3 "~" H 9040 3450 50  0001 C CNN
	1    9050 3500
	1    0    0    -1  
$EndComp
Wire Wire Line
	8850 3100 8850 3500
Wire Wire Line
	8850 4050 8850 3600
Wire Wire Line
	6150 3900 7400 3900
Connection ~ 7400 3900
Wire Wire Line
	7400 3900 7400 4050
Wire Wire Line
	6150 3200 7400 3200
Wire Wire Line
	7400 3100 7400 3200
Connection ~ 7400 3200
Wire Wire Line
	7400 3200 7400 3300
$Comp
L Device:C C9
U 1 1 5C08B0C5
P 6550 4300
F 0 "C9" H 6435 4254 50  0000 R CNN
F 1 "1.0uF" H 6435 4345 50  0000 R CNN
F 2 "Capacitors_SMD:C_1206_HandSoldering" H 6588 4150 50  0001 C CNN
F 3 "~" H 6550 4300 50  0001 C CNN
	1    6550 4300
	-1   0    0    1   
$EndComp
Wire Wire Line
	6550 4450 6550 4500
Wire Wire Line
	6550 4500 6250 4500
Connection ~ 6250 4500
Wire Wire Line
	6300 3500 6550 3500
Wire Wire Line
	6550 3500 6550 4150
Connection ~ 6300 3500
$Comp
L Device:CP C12
U 1 1 5C08ECA7
P 7000 4300
F 0 "C12" H 7118 4346 50  0000 L CNN
F 1 "10uF" H 7118 4255 50  0000 L CNN
F 2 "Capacitors_SMD:CP_Elec_10x10.5" H 7038 4150 50  0001 C CNN
F 3 "~" H 7000 4300 50  0001 C CNN
	1    7000 4300
	1    0    0    -1  
$EndComp
Wire Wire Line
	6550 4500 6850 4500
Wire Wire Line
	7000 4500 7000 4450
Connection ~ 6550 4500
Wire Wire Line
	7000 4150 6550 4150
Connection ~ 6550 4150
Wire Wire Line
	3850 3600 3850 3750
$Comp
L Connector_Generic:Conn_01x02 J3
U 1 1 5C098814
P 3500 4850
F 0 "J3" H 3420 4525 50  0000 C CNN
F 1 "Power" H 3420 4616 50  0000 C CNN
F 2 "Connectors_Samtec:SL-102-X-XX_1x02" H 3500 4850 50  0001 C CNN
F 3 "~" H 3500 4850 50  0001 C CNN
	1    3500 4850
	-1   0    0    1   
$EndComp
$Comp
L power:GND #PWR05
U 1 1 5C09895D
P 3850 4700
F 0 "#PWR05" H 3850 4450 50  0001 C CNN
F 1 "GND" V 3855 4572 50  0000 R CNN
F 2 "" H 3850 4700 50  0001 C CNN
F 3 "" H 3850 4700 50  0001 C CNN
	1    3850 4700
	0    -1   -1   0   
$EndComp
$Comp
L power:VCC #PWR04
U 1 1 5C098A8E
P 3850 4900
F 0 "#PWR04" H 3850 4750 50  0001 C CNN
F 1 "VCC" V 3867 5028 50  0000 L CNN
F 2 "" H 3850 4900 50  0001 C CNN
F 3 "" H 3850 4900 50  0001 C CNN
	1    3850 4900
	0    1    1    0   
$EndComp
Wire Wire Line
	3850 4700 3700 4700
Wire Wire Line
	3700 4700 3700 4750
Wire Wire Line
	3700 4850 3700 4900
Wire Wire Line
	3700 4900 3850 4900
Wire Wire Line
	7400 3100 8850 3100
Wire Wire Line
	7400 4050 8850 4050
$Comp
L power:GND #PWR0101
U 1 1 5C2EA3B3
P 4750 3300
F 0 "#PWR0101" H 4750 3050 50  0001 C CNN
F 1 "GND" V 4755 3172 50  0000 R CNN
F 2 "" H 4750 3300 50  0001 C CNN
F 3 "" H 4750 3300 50  0001 C CNN
	1    4750 3300
	0    1    1    0   
$EndComp
$Comp
L power:VCC #PWR0102
U 1 1 5C2EA413
P 4750 3150
F 0 "#PWR0102" H 4750 3000 50  0001 C CNN
F 1 "VCC" V 4768 3277 50  0000 L CNN
F 2 "" H 4750 3150 50  0001 C CNN
F 3 "" H 4750 3150 50  0001 C CNN
	1    4750 3150
	0    -1   -1   0   
$EndComp
Wire Wire Line
	5150 3200 4850 3200
Wire Wire Line
	4850 3200 4850 3150
Wire Wire Line
	4850 3150 4750 3150
Wire Wire Line
	4750 3300 5150 3300
Wire Wire Line
	5650 4500 6250 4500
$Comp
L Switch:SW_DIP_x02 SW1
U 1 1 5C2EE807
P 6550 4800
F 0 "SW1" H 6550 5167 50  0000 C CNN
F 1 "SW_DIP_x02" H 6550 5076 50  0000 C CNN
F 2 "Buttons_Switches_SMD:SW_DIP_x2_W6.15mm_Slide_Omron_A6H" H 6550 4800 50  0001 C CNN
F 3 "" H 6550 4800 50  0001 C CNN
	1    6550 4800
	1    0    0    -1  
$EndComp
Wire Wire Line
	6850 4700 6850 4500
Connection ~ 6850 4500
Wire Wire Line
	6850 4500 6950 4500
Wire Wire Line
	6850 4800 6950 4800
Wire Wire Line
	6950 4800 6950 4500
Connection ~ 6950 4500
Wire Wire Line
	6950 4500 7000 4500
$Comp
L Connector:AudioJack3_Ground J1
U 1 1 5C3FAC0C
P 2450 3400
F 0 "J1" H 2454 3742 50  0000 C CNN
F 1 "AudioJack3_Ground" H 2454 3651 50  0000 C CNN
F 2 "kicadlibs:3.5mm smd sj-352x-smt" H 2450 3400 50  0001 C CNN
F 3 "~" H 2450 3400 50  0001 C CNN
	1    2450 3400
	1    0    0    -1  
$EndComp
$Comp
L Device:R R1
U 1 1 5C3FAEB4
P 2950 3400
F 0 "R1" V 2743 3400 50  0000 C CNN
F 1 "420" V 2834 3400 50  0000 C CNN
F 2 "Resistors_SMD:R_0603_HandSoldering" V 2880 3400 50  0001 C CNN
F 3 "~" H 2950 3400 50  0001 C CNN
	1    2950 3400
	0    1    1    0   
$EndComp
$Comp
L Device:R R2
U 1 1 5C3FAF51
P 2950 3600
F 0 "R2" V 2743 3600 50  0000 C CNN
F 1 "420" V 2834 3600 50  0000 C CNN
F 2 "Resistors_SMD:R_0603_HandSoldering" V 2880 3600 50  0001 C CNN
F 3 "~" H 2950 3600 50  0001 C CNN
	1    2950 3600
	0    1    1    0   
$EndComp
Wire Wire Line
	2650 3400 2800 3400
Wire Wire Line
	2650 3500 2700 3500
Wire Wire Line
	2700 3500 2700 3600
Wire Wire Line
	2700 3600 2800 3600
Wire Wire Line
	3100 3400 3250 3400
Wire Wire Line
	3250 3400 3250 3600
Wire Wire Line
	3250 3600 3100 3600
Wire Wire Line
	2650 3300 2750 3300
Wire Wire Line
	2750 3300 2750 3250
Wire Wire Line
	3250 3600 3350 3600
Connection ~ 3250 3600
Wire Wire Line
	3850 3250 3850 3350
Wire Wire Line
	2750 3250 3650 3250
$Comp
L Device:R R3
U 1 1 5C417E97
P 3500 3450
F 0 "R3" V 3707 3450 50  0000 C CNN
F 1 "20k" V 3616 3450 50  0000 C CNN
F 2 "Resistors_SMD:R_0603_HandSoldering" V 3430 3450 50  0001 C CNN
F 3 "~" H 3500 3450 50  0001 C CNN
	1    3500 3450
	0    -1   -1   0   
$EndComp
Wire Wire Line
	3650 3450 3650 3250
Connection ~ 3650 3250
Wire Wire Line
	3650 3250 3850 3250
Wire Wire Line
	3350 3450 3350 3600
Connection ~ 3350 3600
Wire Wire Line
	3350 3600 3850 3600
$Comp
L Device:R R4
U 1 1 5C8C4112
P 6000 4700
F 0 "R4" V 5793 4700 50  0000 C CNN
F 1 "R" V 5884 4700 50  0000 C CNN
F 2 "Resistor_SMD:R_0603_1608Metric_Pad1.05x0.95mm_HandSolder" V 5930 4700 50  0001 C CNN
F 3 "~" H 6000 4700 50  0001 C CNN
	1    6000 4700
	0    1    1    0   
$EndComp
$Comp
L Device:R R5
U 1 1 5C8C41EF
P 6000 4850
F 0 "R5" V 5793 4850 50  0000 C CNN
F 1 "R" V 5884 4850 50  0000 C CNN
F 2 "Resistor_SMD:R_0603_1608Metric_Pad1.05x0.95mm_HandSolder" V 5930 4850 50  0001 C CNN
F 3 "~" H 6000 4850 50  0001 C CNN
	1    6000 4850
	0    1    1    0   
$EndComp
Wire Wire Line
	6150 4700 6250 4700
Wire Wire Line
	6250 4800 6150 4800
Wire Wire Line
	6150 4800 6150 4850
Wire Wire Line
	5850 4700 5850 4350
Wire Wire Line
	5850 4350 6350 4350
Wire Wire Line
	6350 4350 6350 3700
Wire Wire Line
	6350 3700 6150 3700
Wire Wire Line
	5850 4850 5800 4850
Wire Wire Line
	5800 4850 5800 4300
Wire Wire Line
	5800 4300 6400 4300
Wire Wire Line
	6400 4300 6400 3600
Wire Wire Line
	6400 3600 6150 3600
$EndSCHEMATC
